"Embeded data types",,,,,,,,,
,,,,,,,,,
"Name","Data Type","Class","Units","Decimals","Low Limit","High Limit","Default","Editor","Comment"
"char","char","string",,,,,,"Text",
"byte","byte","uint",,,,,,"Number",
"word","word","uint",,,,,,"Number",
"dword","dword","uint",,,,,,"Number",
"qword","qword","uint",,,,,,"QNumber",
"int8","int8","int",,,,,,"Number",
"int16","int16","int",,,,,,"Number",
"int32","int32","int",,,,,,"Number",
"int64","int64","int",,,,,,"QNumber",
"float","float","float",,,,,,"Float",
"double","double","float",,,,,,"Float",
"Date","UDateGauge","custom",,,,,,"Date",
"Time","UTimeGauge","custom",,,,,,"Time",
"DateTime","UDateTimeGauge","custom",,,,,,"DateTime",
"Clock","UClockGauge","custom",,,,,,"DateTime",
"Weight","TWeightGauge","custom",,,,,,"Weight","Internal representation of Weight"
"WeightShort","TWeightShortGauge","custom",,,,,,"Weight","Internal representation of short Weight"
"NWeight","TWeight","custom",,,,,,"NWeight","Weight number of current units"
