title,Bat2  menu,,,,,,,,
prefix,,,,,,,,,
file,Menu,,,,,,,,
Object,Name,Data Type,Class,Units,Decimals,Low Limit,High Limit,Default,Comment
Main,menu,,,,,,,,
,Weighing,menu,Weighing,,,,,,
,Statistics,menu,Statistics,,,,,,
,User settings,menu,User settings,,,,,,
,Configuration,menu,Configuration,,,,,,
,Maintenance,menu,Maintenance,,,,,,
,,,,,,,,,
prefix,Main,,,,,,,,
Weighing,menu,,,,,,,,
,Start,menu,,,,,,,
,Stop,menu,,,,,,,
,Suspend,menu,,,,,,,
,Release,menu,,,,,,,
,Diagnostics start,,,,,,,,
,,,,,,,,,
Statistics,menu,,,,,,,,
,Archive,menu,Archive,,,,,,
,Graphs,menu,Graph,,,,,,
,Today's weighings,menu,Todays weighings,,,,,,
,,,,,,,,,
User settings,menu,,,,,,,,
,Display backlight,menu,Backlight intensity,,,,,,
,Display contrast,menu,Contrast,,,,,,
,Date and time,menu,Date time,,,,,,
,,,,,,,,,
Configuration,menu,,,,,,,,
,Weighing,menu,,,,,,,
,Communication,menu,Communication,,,,,,
,Data publication,menu,Data publication,,,,,,
,Display,menu,Display,,,,,,
,,,,,,,,,
Maintenance,menu,,,,,,,,
,Scale name,char,string,,,1,15,BAT2,Scale device name
,Country,menu,Country,,,,,,
,Weighing,menu,Weight Units,,,,,,
,Platform,menu,Platform Info,,,,,,
,Calibration,menu,,,,,,,
,Usb,menu,,,,,,,
,Power,menu,,,,,,,
,Simulation,menu,,,,,,,
,Bootloader,menu,,,,,,,
,Factory defaults,menu,,,,,,,
,,,,,,,,,
Weighing,,,,,,,,,
,Predefined weighings,menu,Predefined Weighings,,,,,,
,Default weighing,Weighing Index,,,,,,0xFF,Predefined weighing index
,Weighing plan,menu,Weighing plan,,,,,,
,Growth curves,menu,Growth Curve,,,,,,
,Correction curves,menu,Correction Curve,,,,,,
,,,,,,,,,
Communication,,,,,,,,,
,Cellular,menu,GSM,,,,,,
,RS485,menu,RS485,,,,,,
,Internet connection,menu,Internet connection,,,,,,
,USB,menu,USB,,,,,,
