?File:	SW CITY CONTROL		Count:	300		CV [%]:	13.3
Scale:	MERIAL1		Average [lb]:	4.393		Uniformity [%]:	57.6
Note:			St. deviation [lb]:	0.586		Speed [1/hour]:	69

File	Number	Date and time	Weight [lb]	Sex / limit			
SW CITY CONTROL	1	6/13/2011 6:57	3.853	not used	Fred Spence - 4.30 proj; 4.28 actual		
SW CITY CONTROL	2	6/13/2011 6:57	4.602	not used			
SW CITY CONTROL	3	6/13/2011 6:58	4.783	not used			
SW CITY CONTROL	4	6/13/2011 6:58	3.472	not used			
SW CITY CONTROL	5	6/13/2011 6:58	5.165	not used			
SW CITY CONTROL	6	6/13/2011 6:58	4.596	not used			
SW CITY CONTROL	7	6/13/2011 6:58	4.147	not used			
SW CITY CONTROL	8	6/13/2011 6:58	4.085	not used			
SW CITY CONTROL	9	6/13/2011 6:58	3.183	not used			
SW CITY CONTROL	10	6/13/2011 6:59	4.935	not used			
SW CITY CONTROL	11	6/13/2011 6:59	3.473	not used			
SW CITY CONTROL	12	6/13/2011 6:59	4.307	not used
SW CITY CONTROL	13	6/13/2011 6:59	3.871	not used
SW CITY CONTROL	14	6/13/2011 6:59	3.331	not used
SW CITY CONTROL	15	6/13/2011 6:59	4.911	not used
SW CITY CONTROL	16	6/13/2011 6:59	4.478	not used
SW CITY CONTROL	17	6/13/2011 6:59	3.522	not used
SW CITY CONTROL	18	6/13/2011 7:00	3.924	not used
SW CITY CONTROL	19	6/13/2011 7:00	4.77	not used
SW CITY CONTROL	20	6/13/2011 7:00	3.696	not used
SW CITY CONTROL	21	6/13/2011 7:00	4.606	not used
SW CITY CONTROL	22	6/13/2011 7:00	4.352	not used
SW CITY CONTROL	23	6/13/2011 7:00	4.297	not used
SW CITY CONTROL	24	6/13/2011 7:00	4.598	not used
SW CITY CONTROL	25	6/13/2011 7:00	4.458	not used
SW CITY CONTROL	26	6/13/2011 7:01	4.455	not used
SW CITY CONTROL	27	6/13/2011 7:01	3.408	not used
SW CITY CONTROL	28	6/13/2011 7:01	4.454	not used
SW CITY CONTROL	29	6/13/2011 7:01	3.742	not used
SW CITY CONTROL	30	6/13/2011 7:01	4.149	not used
SW CITY CONTROL	31	6/13/2011 7:01	4.585	not used
SW CITY CONTROL	32	6/13/2011 7:01	4.188	not used
SW CITY CONTROL	33	6/13/2011 7:01	5.091	not used
SW CITY CONTROL	34	6/13/2011 7:02	3.994	not used
SW CITY CONTROL	35	6/13/2011 7:02	5.104	not used
SW CITY CONTROL	36	6/13/2011 7:02	4.819	not used
SW CITY CONTROL	37	6/13/2011 7:02	3.379	not used
SW CITY CONTROL	38	6/13/2011 7:02	4.056	not used
SW CITY CONTROL	39	6/13/2011 7:02	3.692	not used
SW CITY CONTROL	40	6/13/2011 7:02	3.787	not used
SW CITY CONTROL	41	6/13/2011 7:02	3.82	not used
SW CITY CONTROL	42	6/13/2011 7:03	5.368	not used
SW CITY CONTROL	43	6/13/2011 7:03	4.077	not used
SW CITY CONTROL	44	6/13/2011 7:03	4.072	not used
SW CITY CONTROL	45	6/13/2011 7:03	4.373	not used
SW CITY CONTROL	46	6/13/2011 7:03	4.649	not used
SW CITY CONTROL	47	6/13/2011 7:03	3.73	not used
SW CITY CONTROL	48	6/13/2011 7:03	3.672	not used
SW CITY CONTROL	49	6/13/2011 7:04	4.109	not used
SW CITY CONTROL	50	6/13/2011 7:04	4.503	not used
SW CITY CONTROL	51	6/13/2011 7:04	4.437	not used
SW CITY CONTROL	52	6/13/2011 7:04	3.954	not used
SW CITY CONTROL	53	6/13/2011 7:04	4.669	not used
SW CITY CONTROL	54	6/13/2011 7:04	4.287	not used
SW CITY CONTROL	55	6/13/2011 7:04	3.241	not used
SW CITY CONTROL	56	6/13/2011 7:04	4.003	not used
SW CITY CONTROL	57	6/13/2011 7:05	4.54	not used
SW CITY CONTROL	58	6/13/2011 7:05	3.758	not used
SW CITY CONTROL	59	6/13/2011 7:05	3.657	not used
SW CITY CONTROL	60	6/13/2011 7:05	4.362	not used
SW CITY CONTROL	61	6/13/2011 7:05	3.629	not used
SW CITY CONTROL	62	6/13/2011 7:05	3.739	not used
SW CITY CONTROL	63	6/13/2011 7:05	4.565	not used
SW CITY CONTROL	64	6/13/2011 7:05	4.008	not used
SW CITY CONTROL	65	6/13/2011 7:06	4.471	not used
SW CITY CONTROL	66	6/13/2011 7:06	4.415	not used
SW CITY CONTROL	67	6/13/2011 7:06	3.807	not used
SW CITY CONTROL	68	6/13/2011 7:06	4.062	not used
SW CITY CONTROL	69	6/13/2011 7:06	3.891	not used
SW CITY CONTROL	70	6/13/2011 7:06	4.556	not used
SW CITY CONTROL	71	6/13/2011 7:06	4.296	not used
SW CITY CONTROL	72	6/13/2011 7:07	4.345	not used
SW CITY CONTROL	73	6/13/2011 7:07	4.149	not used
SW CITY CONTROL	74	6/13/2011 7:07	4.316	not used
SW CITY CONTROL	75	6/13/2011 7:07	4.082	not used
SW CITY CONTROL	76	6/13/2011 7:07	4.741	not used
SW CITY CONTROL	77	6/13/2011 7:07	4.588	not used
SW CITY CONTROL	78	6/13/2011 7:07	3.711	not used
SW CITY CONTROL	79	6/13/2011 7:08	3.937	not used
SW CITY CONTROL	80	6/13/2011 7:08	3.59	not used
SW CITY CONTROL	81	6/13/2011 7:08	4.033	not used
SW CITY CONTROL	82	6/13/2011 7:08	4.118	not used
SW CITY CONTROL	83	6/13/2011 7:08	3.516	not used
SW CITY CONTROL	84	6/13/2011 7:08	3.938	not used
SW CITY CONTROL	85	6/13/2011 7:08	4.1	not used
SW CITY CONTROL	86	6/13/2011 7:09	3.135	not used
SW CITY CONTROL	87	6/13/2011 7:09	4.457	not used
SW CITY CONTROL	88	6/13/2011 7:09	4.188	not used
SW CITY CONTROL	89	6/13/2011 7:09	3.92	not used
SW CITY CONTROL	90	6/13/2011 7:09	4.219	not used
SW CITY CONTROL	91	6/13/2011 7:09	3.809	not used
SW CITY CONTROL	92	6/13/2011 7:09	3.728	not used	
SW CITY CONTROL	93	6/13/2011 7:10	3.645	not used	
SW CITY CONTROL	94	6/13/2011 7:10	4.052	not used	
SW CITY CONTROL	95	6/13/2011 7:10	4.504	not used	
SW CITY CONTROL	96	6/13/2011 7:10	3.909	not used	
SW CITY CONTROL	97	6/13/2011 7:10	4.38	not used	
SW CITY CONTROL	98	6/13/2011 7:10	3.59	not used	
SW CITY CONTROL	99	6/13/2011 7:10	4.149	not used	
SW CITY CONTROL	100	6/13/2011 7:10	3.467	not used	
SW CITY CONTROL	101	6/13/2011 8:40	4.438	not used	Fud-Lo - 4.49 proj; 4.34 actual
SW CITY CONTROL	102	6/13/2011 8:40	4.566	not used	
SW CITY CONTROL	103	6/13/2011 8:40	3.459	not used	
SW CITY CONTROL	104	6/13/2011 8:40	5.305	not used	
SW CITY CONTROL	105	6/13/2011 8:40	4.224	not used	
SW CITY CONTROL	106	6/13/2011 8:41	4.809	not used	
SW CITY CONTROL	107	6/13/2011 8:41	4.14	not used	
SW CITY CONTROL	108	6/13/2011 8:41	3.851	not used
SW CITY CONTROL	109	6/13/2011 8:41	3.546	not used
SW CITY CONTROL	110	6/13/2011 8:41	4.971	not used
SW CITY CONTROL	111	6/13/2011 8:41	4.309	not used
SW CITY CONTROL	112	6/13/2011 8:42	5.267	not used
SW CITY CONTROL	113	6/13/2011 8:42	4.4	not used
SW CITY CONTROL	114	6/13/2011 8:42	5.064	not used
SW CITY CONTROL	115	6/13/2011 8:42	4.223	not used
SW CITY CONTROL	116	6/13/2011 8:42	3.577	not used
SW CITY CONTROL	117	6/13/2011 8:42	4.132	not used
SW CITY CONTROL	118	6/13/2011 8:42	4.205	not used
SW CITY CONTROL	119	6/13/2011 8:42	4.379	not used
SW CITY CONTROL	120	6/13/2011 8:43	4.18	not used
SW CITY CONTROL	121	6/13/2011 8:43	4.233	not used
SW CITY CONTROL	122	6/13/2011 8:43	4.799	not used
SW CITY CONTROL	123	6/13/2011 8:43	4.294	not used
SW CITY CONTROL	124	6/13/2011 8:43	4.029	not used
SW CITY CONTROL	125	6/13/2011 8:43	4.752	not used
SW CITY CONTROL	126	6/13/2011 8:43	5.066	not used
SW CITY CONTROL	127	6/13/2011 8:44	4.156	not used
SW CITY CONTROL	128	6/13/2011 8:44	5.048	not used
SW CITY CONTROL	129	6/13/2011 8:44	4.678	not used
SW CITY CONTROL	130	6/13/2011 8:44	3.656	not used
SW CITY CONTROL	131	6/13/2011 8:44	4.449	not used
SW CITY CONTROL	132	6/13/2011 8:44	4.579	not used
SW CITY CONTROL	133	6/13/2011 8:44	4.667	not used
SW CITY CONTROL	134	6/13/2011 8:45	4.354	not used
SW CITY CONTROL	135	6/13/2011 8:45	4.021	not used
SW CITY CONTROL	136	6/13/2011 8:45	3.44	not used
SW CITY CONTROL	137	6/13/2011 8:45	4.357	not used
SW CITY CONTROL	138	6/13/2011 8:45	3.518	not used
SW CITY CONTROL	139	6/13/2011 8:45	4.328	not used
SW CITY CONTROL	140	6/13/2011 8:45	4.736	not used
SW CITY CONTROL	141	6/13/2011 8:46	3.854	not used
SW CITY CONTROL	142	6/13/2011 8:46	4.396	not used
SW CITY CONTROL	143	6/13/2011 8:46	5.144	not used
SW CITY CONTROL	144	6/13/2011 8:46	3.894	not used
SW CITY CONTROL	145	6/13/2011 8:46	4.326	not used
SW CITY CONTROL	146	6/13/2011 8:46	4.236	not used
SW CITY CONTROL	147	6/13/2011 8:46	4.806	not used
SW CITY CONTROL	148	6/13/2011 8:47	2.356	not used
SW CITY CONTROL	149	6/13/2011 8:47	5.156	not used
SW CITY CONTROL	150	6/13/2011 8:47	4.567	not used
SW CITY CONTROL	151	6/13/2011 8:47	5.292	not used
SW CITY CONTROL	152	6/13/2011 8:47	4.193	not used
SW CITY CONTROL	153	6/13/2011 8:47	3.104	not used
SW CITY CONTROL	154	6/13/2011 8:47	4.07	not used
SW CITY CONTROL	155	6/13/2011 8:48	3.608	not used
SW CITY CONTROL	156	6/13/2011 8:48	5.306	not used
SW CITY CONTROL	157	6/13/2011 8:48	4.3	not used
SW CITY CONTROL	158	6/13/2011 8:48	4.423	not used
SW CITY CONTROL	159	6/13/2011 8:48	5.11	not used
SW CITY CONTROL	160	6/13/2011 8:48	4.652	not used
SW CITY CONTROL	161	6/13/2011 8:48	4.285	not used
SW CITY CONTROL	162	6/13/2011 8:48	4.626	not used
SW CITY CONTROL	163	6/13/2011 8:49	5.142	not used
SW CITY CONTROL	164	6/13/2011 8:49	5.026	not used
SW CITY CONTROL	165	6/13/2011 8:49	3.855	not used
SW CITY CONTROL	166	6/13/2011 8:49	3.907	not used
SW CITY CONTROL	167	6/13/2011 8:49	4.479	not used
SW CITY CONTROL	168	6/13/2011 8:49	3.657	not used
SW CITY CONTROL	169	6/13/2011 8:50	4.514	not used
SW CITY CONTROL	170	6/13/2011 8:50	4.29	not used
SW CITY CONTROL	171	6/13/2011 8:50	3.967	not used
SW CITY CONTROL	172	6/13/2011 8:50	4.076	not used
SW CITY CONTROL	173	6/13/2011 8:50	4.977	not used
SW CITY CONTROL	174	6/13/2011 8:50	4.222	not used
SW CITY CONTROL	175	6/13/2011 8:50	4.64	not used
SW CITY CONTROL	176	6/13/2011 8:51	4.449	not used
SW CITY CONTROL	177	6/13/2011 8:51	5.678	not used
SW CITY CONTROL	178	6/13/2011 8:51	3.059	not used
SW CITY CONTROL	179	6/13/2011 8:51	4.062	not used
SW CITY CONTROL	180	6/13/2011 8:51	4.132	not used
SW CITY CONTROL	181	6/13/2011 8:51	3.672	not used
SW CITY CONTROL	182	6/13/2011 8:51	4.484	not used
SW CITY CONTROL	183	6/13/2011 8:52	4.794	not used
SW CITY CONTROL	184	6/13/2011 8:52	4.303	not used
SW CITY CONTROL	185	6/13/2011 8:52	4.503	not used
SW CITY CONTROL	186	6/13/2011 8:52	4.612	not used
SW CITY CONTROL	187	6/13/2011 8:52	4.847	not used
SW CITY CONTROL	188	6/13/2011 8:52	3.935	not used	
SW CITY CONTROL	189	6/13/2011 8:52	4.935	not used	
SW CITY CONTROL	190	6/13/2011 8:52	4.186	not used	
SW CITY CONTROL	191	6/13/2011 8:53	4.299	not used	
SW CITY CONTROL	192	6/13/2011 8:53	5.461	not used	
SW CITY CONTROL	193	6/13/2011 8:53	4.267	not used	
SW CITY CONTROL	194	6/13/2011 8:53	3.991	not used	
SW CITY CONTROL	195	6/13/2011 8:53	4.104	not used	
SW CITY CONTROL	196	6/13/2011 8:53	4.426	not used	
SW CITY CONTROL	197	6/13/2011 8:53	4.445	not used	
SW CITY CONTROL	198	6/13/2011 8:53	4.974	not used	
SW CITY CONTROL	199	6/13/2011 8:54	4.198	not used	
SW CITY CONTROL	200	6/13/2011 8:54	4.189	not used	
SW CITY CONTROL	201	6/13/2011 11:04	4.801	not used	Travis Spears - 4.60 proj; 4.52 actual
SW CITY CONTROL	202	6/13/2011 11:04	4.511	not used	
SW CITY CONTROL	203	6/13/2011 11:05	4.345	not used	
SW CITY CONTROL	204	6/13/2011 11:05	4.939	not used
SW CITY CONTROL	205	6/13/2011 11:05	5.102	not used
SW CITY CONTROL	206	6/13/2011 11:05	5.115	not used
SW CITY CONTROL	207	6/13/2011 11:05	5.093	not used
SW CITY CONTROL	208	6/13/2011 11:05	5.73	not used
SW CITY CONTROL	209	6/13/2011 11:06	5.485	not used
SW CITY CONTROL	210	6/13/2011 11:06	5.59	not used
SW CITY CONTROL	211	6/13/2011 11:06	4.612	not used
SW CITY CONTROL	212	6/13/2011 11:06	4.04	not used
SW CITY CONTROL	213	6/13/2011 11:06	4.366	not used
SW CITY CONTROL	214	6/13/2011 11:06	4.041	not used
SW CITY CONTROL	215	6/13/2011 11:06	5.33	not used
SW CITY CONTROL	216	6/13/2011 11:07	5.947	not used
SW CITY CONTROL	217	6/13/2011 11:07	4.669	not used
SW CITY CONTROL	218	6/13/2011 11:07	3.87	not used
SW CITY CONTROL	219	6/13/2011 11:07	4.098	not used
SW CITY CONTROL	220	6/13/2011 11:07	4.654	not used
SW CITY CONTROL	221	6/13/2011 11:08	5.288	not used
SW CITY CONTROL	222	6/13/2011 11:08	5.057	not used
SW CITY CONTROL	223	6/13/2011 11:08	5.238	not used
SW CITY CONTROL	224	6/13/2011 11:08	4.169	not used
SW CITY CONTROL	225	6/13/2011 11:08	4.117	not used
SW CITY CONTROL	226	6/13/2011 11:08	5.024	not used
SW CITY CONTROL	227	6/13/2011 11:08	5.08	not used
SW CITY CONTROL	228	6/13/2011 11:08	5.362	not used
SW CITY CONTROL	229	6/13/2011 11:09	4.258	not used
SW CITY CONTROL	230	6/13/2011 11:09	4.371	not used
SW CITY CONTROL	231	6/13/2011 11:09	5.049	not used
SW CITY CONTROL	232	6/13/2011 11:09	5.24	not used
SW CITY CONTROL	233	6/13/2011 11:09	4.985	not used
SW CITY CONTROL	234	6/13/2011 11:09	5.119	not used
SW CITY CONTROL	235	6/13/2011 11:09	4.307	not used
SW CITY CONTROL	236	6/13/2011 11:10	4.208	not used
SW CITY CONTROL	237	6/13/2011 11:10	4.212	not used
SW CITY CONTROL	238	6/13/2011 11:10	4.75	not used
SW CITY CONTROL	239	6/13/2011 11:10	4.605	not used
SW CITY CONTROL	240	6/13/2011 11:10	3.945	not used
SW CITY CONTROL	241	6/13/2011 11:10	4.764	not used
SW CITY CONTROL	242	6/13/2011 11:10	3.834	not used
SW CITY CONTROL	243	6/13/2011 11:11	4.101	not used
SW CITY CONTROL	244	6/13/2011 11:11	5.244	not used
SW CITY CONTROL	245	6/13/2011 11:11	4.369	not used
SW CITY CONTROL	246	6/13/2011 11:11	2.947	not used
SW CITY CONTROL	247	6/13/2011 11:11	4.795	not used
SW CITY CONTROL	248	6/13/2011 11:11	4.556	not used
SW CITY CONTROL	249	6/13/2011 11:11	3.902	not used
SW CITY CONTROL	250	6/13/2011 11:11	4.798	not used
SW CITY CONTROL	251	6/13/2011 11:12	5.531	not used
SW CITY CONTROL	252	6/13/2011 11:12	4.396	not used
SW CITY CONTROL	253	6/13/2011 11:12	4.557	not used
SW CITY CONTROL	254	6/13/2011 11:12	4.641	not used
SW CITY CONTROL	255	6/13/2011 11:12	5.037	not used
SW CITY CONTROL	256	6/13/2011 11:12	5.201	not used
SW CITY CONTROL	257	6/13/2011 11:13	3.943	not used
SW CITY CONTROL	258	6/13/2011 11:13	4.982	not used
SW CITY CONTROL	259	6/13/2011 11:13	4.051	not used
SW CITY CONTROL	260	6/13/2011 11:13	4.527	not used
SW CITY CONTROL	261	6/13/2011 11:13	4.434	not used
SW CITY CONTROL	262	6/13/2011 11:13	5.608	not used
SW CITY CONTROL	263	6/13/2011 11:13	4.851	not used
SW CITY CONTROL	264	6/13/2011 11:13	5.754	not used
SW CITY CONTROL	265	6/13/2011 11:14	4.524	not used
SW CITY CONTROL	266	6/13/2011 11:14	4.547	not used
SW CITY CONTROL	267	6/13/2011 11:14	4.791	not used
SW CITY CONTROL	268	6/13/2011 11:14	4.209	not used
SW CITY CONTROL	269	6/13/2011 11:14	4.39	not used
SW CITY CONTROL	270	6/13/2011 11:14	4.839	not used
SW CITY CONTROL	271	6/13/2011 11:14	4.543	not used
SW CITY CONTROL	272	6/13/2011 11:14	4.291	not used
SW CITY CONTROL	273	6/13/2011 11:15	5.221	not used
SW CITY CONTROL	274	6/13/2011 11:15	4.676	not used
SW CITY CONTROL	275	6/13/2011 11:15	4.504	not used
SW CITY CONTROL	276	6/13/2011 11:15	5.267	not used
SW CITY CONTROL	277	6/13/2011 11:15	4.682	not used
SW CITY CONTROL	278	6/13/2011 11:15	4.438	not used
SW CITY CONTROL	279	6/13/2011 11:15	5.51	not used
SW CITY CONTROL	280	6/13/2011 11:16	3.255	not used
SW CITY CONTROL	281	6/13/2011 11:16	5.815	not used
SW CITY CONTROL	282	6/13/2011 11:16	5.67	not used
SW CITY CONTROL	283	6/13/2011 11:16	5.11	not used
SW CITY CONTROL	284	6/13/2011 11:16	4.522	not used
SW CITY CONTROL	285	6/13/2011 11:16	4.598	not used
SW CITY CONTROL	286	6/13/2011 11:16	3.783	not used
SW CITY CONTROL	287	6/13/2011 11:16	5.235	not used
SW CITY CONTROL	288	6/13/2011 11:17	4.775	not used
SW CITY CONTROL	289	6/13/2011 11:17	5.242	not used
SW CITY CONTROL	290	6/13/2011 11:17	4.051	not used
SW CITY CONTROL	291	6/13/2011 11:17	5.381	not used
SW CITY CONTROL	292	6/13/2011 11:17	4.465	not used
SW CITY CONTROL	293	6/13/2011 11:17	4.768	not used
SW CITY CONTROL	294	6/13/2011 11:17	4.195	not used
SW CITY CONTROL	295	6/13/2011 11:17	4.947	not used
SW CITY CONTROL	296	6/13/2011 11:18	4.478	not used
SW CITY CONTROL	297	6/13/2011 11:18	4.42	not used
SW CITY CONTROL	298	6/13/2011 11:18	4.463	not used
SW CITY CONTROL	299	6/13/2011 11:18	2.214	not used
SW CITY CONTROL	300	6/13/2011 11:18	4.589	not used
