"LANGUAGE","LNG_CZECH","LNG_DUTCH","LNG_ENGLISH","LNG_FINNISH","LNG_FRENCH","LNG_GERMAN","LNG_HUNGARIAN","LNG_JAPANESE","LNG_POLISH","LNG_PORTUGUESE","LNG_RUSSIAN","LNG_SPANISH","LNG_TURKISH"
"CODEPAGE","NORMAL","NORMAL","NORMAL","NORMAL","NORMAL","NORMAL","NORMAL","JAPAN","NORMAL","NORMAL","CYRILIC","NORMAL","NORMAL"
,,,,,,,,,,,,,
"//-----------------------------------------------------------------------------",,,,,,,,,,,,,
"// Buttons",,,,,,,,,,,,,
"//-----------------------------------------------------------------------------",,,,,,,,,,,,,
,,,,,,,,,,,,,
"STR_BTN_OK","OK","OK","OK","OK","OK","OK","OK","OK","OK","OK","OК","OK","TAMAM"
"STR_BTN_YES","ANO","JA","YES","KYLLÄ","OUI","JA","IGEN","ハイ","TAK","SIM","ДА","SÍ","EVET"
"STR_BTN_NO","NE","NEE","NO","EI","NON","NEIN","NEM","イイエ","NIE","NÃO","НЕТ ","NO","HAYIR"
"STR_BTN_CANCEL","ZRUŠIT","ANNULEER","CANCEL","PERUUTA","ANNULER","ABBRUCH","VISSZA","キャンセル","ANULUJ","CANCELAR","ОТМЕНА","CANCELAR","VAZGEC"
"STR_BTN_HISTOGRAM","HISTOGRAM","HISTOGRAM","HISTOGRAM","HISTOGRAMMI","HISTOGRAMME","HISTOGRAMM","GRAFIKON","ヒストグラム","HISTOGRAM","HISTOGRAMA","ГРАФИК","HISTOGRAMA","GRAFIK"
"STR_BTN_STATISTICS","STATISTIKA","STATISTIEKEN","STATISTICS","TILASTOT","STATISTIQUES","STATISTIK","STATISZTIKA","トウケイ","STATYSTYKI","ESTATÍSTICA","СТАТИСТИКА ","ESTADÍSTICAS","ISTATISTIKLER"
"STR_BTN_DELETE","SMAZAT","VERWIJDEREN","DELETE","POISTA","EFFACER","LÖSCHEN","TÖRLÉS","サクジョ","USUŃ","DELETAR","УДАЛИТЬ","ELIMINAR","SIL"
"STR_BTN_EXIT","ZAVŘÍT","AFSLUITEN","EXIT","LOPETA","SORTIE","VERLASSEN","KILÉP","トジル","WYJDŹ","SAIR","ВЫХОД","SALIDA","CIKIS"
"STR_BTN_SELECT","VYBRAT","SELECTEREN","SELECT","VALITSE","CHOISIR","AUSWAHL","KIVÁLASZT","センタクスル","WYBIERZ","SELECIONAR","ВЫБОР","SELECCIONAR","SEC"
,,,,,,,,,,,,,
"//-----------------------------------------------------------------------------",,,,,,,,,,,,,
"// Standard title :",,,,,,,,,,,,,
"//-----------------------------------------------------------------------------",,,,,,,,,,,,,
,,,,,,,,,,,,,
"STR_ERROR","Chyba","Fout","Error","Virhe","Erreur","Fehler","Hiba","エラー","Błąd","Erro","Ошибка","Error","Hata"
,,,,,,,,,,,,,
"//-----------------------------------------------------------------------------",,,,,,,,,,,,,
"// Input box :",,,,,,,,,,,,,
"//-----------------------------------------------------------------------------",,,,,,,,,,,,,
,,,,,,,,,,,,,
"STR_OUT_OF_LIMITS","Hodnota mimo rozsah","Invoer te groot. Aub inkorten","Value out of limits","Arvo ylittää rajat","Valeur hors limite","Bereichsüberschreitung","Határon kívüli érték","リミットヲコエタアタイ","Wartość poza limitem","Valor fora dos limites","Ограничение веса","Valor fuera de límites","Deger limitler disinda"
,,,,,,,,,,,,,
"//-----------------------------------------------------------------------------",,,,,,,,,,,,,
"// Directory box :",,,,,,,,,,,,,
"//-----------------------------------------------------------------------------",,,,,,,,,,,,,
,,,,,,,,,,,,,
"STR_NO_FILES_DEFINED","Není definován žádný soubor","Geen bestanden in weegschaal","No files defined","Tiedostoaja ei ole määritelty","Pas de fichiers définis","Keine Dateien definiert","Nincs adat választva","ファイルガテイギサレテイマセン","Brak zdefiniowanych plików","Nenhum arquivo selecionado","Нет данного файла","Archivos no especificados","Tanimlanmis dosya yok"
"STR_NO_GROUPS_DEFINED","Není definována žádná skupina","Geen bestandsgroepen\nin weegschaal","No groups defined","Ryhmiä ei ole määritelty","Pas de groupes définis","Keine Gruppen definiert","Nincs csoport választva","グループガテイギサレテイマセン","Brak zdefiniowanych grup","Nennhum grupo selicionado","Нет данной групп","Grupos no especificados","Tanimlanmis grup yok"
"STR_SELECT_FILE","Výběr souboru","Selecteer bestand","Select file","Valitse tiedosto","Choisir un fichier","Datei auswählen","Adat választás","ファイルヲセンタク","Wybierz plik","Selecionar arquivo","Выбрать файл","Seleccionar un archivo","Dosya sec"
"STR_SELECT_GROUP","Výběr skupiny","Selecteer groep","Select group","Valitse ryhmä","Choisir un dossier","Gruppe auswählen","Csoport választása","グループヲセンタク","Wybierz grupę","Selecionar  grupo","Выбрать группу","Seleccionar un grupo","Grup sec"
"STR_SELECT_FILES","Výběr souborů","Selecteer bestanden","Select files","Valitse tiedostot","Choisir des fichiers","Dateien auswählen","Több adat kiválasztása","ファイルヲセンタク","Wybierz pliki","Selecionar arquivos","Выбрать файлы","Seleccionar archivos","Dosyalari sec"
,,,,,,,,,,,,,
"//-----------------------------------------------------------------------------",,,,,,,,,,,,,
"// Text box :",,,,,,,,,,,,,
"//-----------------------------------------------------------------------------",,,,,,,,,,,,,
,,,,,,,,,,,,,
"STR_STRING_EMPTY","Neplatná hodnota","Geen geldige waarde","Invalid value","Virheellinen arvo","Valeur invalide","Ungültiger Wert","Érvénytelen mennyiség","ムコウナスウチ","Nieprawidłowa wartość","Valor inválido","Не действительный вес","Valor inválido","Gecersiz deger"
,,,,,,,,,,,,,
"//-----------------------------------------------------------------------------",,,,,,,,,,,,,
"// DSamples box :",,,,,,,,,,,,,
"//-----------------------------------------------------------------------------",,,,,,,,,,,,,
,,,,,,,,,,,,,
"STR_DELETE_SAMPLE","Smazat hmotnost","Verwijder gewicht","Delete weight","Poista punnitus","Effacer la pesée","Gewichtswert löschen","Súly törlése","タイジュウヲサクジョ","Usuń dane ważeń","Deletar peso","Удалить вес","Eliminar el peso","Tartimi sil"
"STR_REALLY_DELETE_RECORD","Opravdu smazat hmotnost ?","Gewicht echt verwijderen?","Really delete weight ?","Haluatko varmasti poistaa\npunnituksen?","Voulez-vous vraiment supprimer la pesée?","Wirklich löschen?","Tényleg törli a súlyt?","ホントウニタイジュウ\nヲサクジョシマスカ?","Czy na pewno chcesz\nusunąć dane ważeń ?","Realmente deletar peso?","Удалить вес ?","¿Realmente eliminar el peso?","Tartim gercekten silinsin mi?"
,,,,,,,,,,,,,
"//-----------------------------------------------------------------------------",,,,,,,,,,,,,
"// Physical units :",,,,,,,,,,,,,
"//-----------------------------------------------------------------------------",,,,,,,,,,,,,
,,,,,,,,,,,,,
"STR_MINUTES","min","min","min","min","min","min","perc","フン","min.","min","Мин","m","dak."
"STR_SECONDS","s","s","s","s","s","s","mp","ビョウ","sek.","s","Сек","s","sn."
,,,,,,,,,,,,,
"//-----------------------------------------------------------------------------",,,,,,,,,,,,,
"// Yes/No enum :",,,,,,,,,,,,,
"//-----------------------------------------------------------------------------",,,,,,,,,,,,,
,,,,,,,,,,,,,
"STR_NO","Ne","Nee","No","Ei","Non","Nein","Nem","イイエ","Nie","Não","Нет","No","Hayir"
"STR_YES","Ano","Ja","Yes","Kyllä","Oui","Ja","Igen","ハイ","Tak","Sim","Да","Sí","Evet"
,,,,,,,,,,,,,
"//-----------------------------------------------------------------------------",,,,,,,,,,,,,
"// Country enum :",,,,,,,,,,,,,
"//-----------------------------------------------------------------------------",,,,,,,,,,,,,
,,,,,,,,,,,,,
"STR_COUNTRY_INTERNATIONAL","International","International","International","International","International","International","International","International","International","International","International","International","International"
"STR_COUNTRY_ALBANIA","Albania","Albania","Albania","Albania","Albania","Albania","Albania","Albania","Albania","Albania","Albania","Albania","Albania"
"STR_COUNTRY_ALGERIA","Algeria","Algeria","Algeria","Algeria","Algeria","Algeria","Algeria","Algeria","Algeria","Algeria","Algeria","Algeria","Algeria"
"STR_COUNTRY_ARGENTINA","Argentina","Argentina","Argentina","Argentina","Argentina","Argentina","Argentina","Argentina","Argentina","Argentina","Argentina","Argentina","Argentina"
"STR_COUNTRY_AUSTRALIA","Australia","Australia","Australia","Australia","Australia","Australia","Australia","Australia","Australia","Australia","Australia","Australia","Australia"
"STR_COUNTRY_AUSTRIA","Austria","Austria","Austria","Austria","Austria","Austria","Austria","Austria","Austria","Austria","Austria","Austria","Austria"
"STR_COUNTRY_BANGLADESH","Bangladesh","Bangladesh","Bangladesh","Bangladesh","Bangladesh","Bangladesh","Bangladesh","Bangladesh","Bangladesh","Bangladesh","Bangladesh","Bangladesh","Bangladesh"
"STR_COUNTRY_BELARUS","Belarus","Belarus","Belarus","Belarus","Belarus","Belarus","Belarus","Belarus","Belarus","Belarus","Belarus","Belarus","Belarus"
"STR_COUNTRY_BELGIUM","Belgium","Belgium","Belgium","Belgium","Belgium","Belgium","Belgium","Belgium","Belgium","Belgium","Belgium","Belgium","Belgium"
"STR_COUNTRY_BOLIVIA","Bolivia","Bolivia","Bolivia","Bolivia","Bolivia","Bolivia","Bolivia","Bolivia","Bolivia","Bolivia","Bolivia","Bolivia","Bolivia"
"STR_COUNTRY_BRAZIL","Brazil","Brazil","Brazil","Brazil","Brazil","Brazil","Brazil","Brazil","Brazil","Brazil","Brazil","Brazil","Brazil"
"STR_COUNTRY_BULGARIA","Bulgaria","Bulgaria","Bulgaria","Bulgaria","Bulgaria","Bulgaria","Bulgaria","Bulgaria","Bulgaria","Bulgaria","Bulgaria","Bulgaria","Bulgaria"
"STR_COUNTRY_CANADA","Canada","Canada","Canada","Canada","Canada","Canada","Canada","Canada","Canada","Canada","Canada","Canada","Canada"
"STR_COUNTRY_CHILE","Chile","Chile","Chile","Chile","Chile","Chile","Chile","Chile","Chile","Chile","Chile","Chile","Chile"
"STR_COUNTRY_CHINA","China","China","China","China","China","China","China","China","China","China","China","China","China"
"STR_COUNTRY_COLOMBIA","Colombia","Colombia","Colombia","Colombia","Colombia","Colombia","Colombia","Colombia","Colombia","Colombia","Colombia","Colombia","Colombia"
"STR_COUNTRY_CYPRUS","Cyprus","Cyprus","Cyprus","Cyprus","Cyprus","Cyprus","Cyprus","Cyprus","Cyprus","Cyprus","Cyprus","Cyprus","Cyprus"
"STR_COUNTRY_CZECH","Czech","Czech","Czech","Czech","Czech","Czech","Czech","Czech","Czech","Czech","Czech","Czech","Czech"
"STR_COUNTRY_DENMARK","Denmark","Denmark","Denmark","Denmark","Denmark","Denmark","Denmark","Denmark","Denmark","Denmark","Denmark","Denmark","Denmark"
"STR_COUNTRY_ECUADOR","Ecuador","Ecuador","Ecuador","Ecuador","Ecuador","Ecuador","Ecuador","Ecuador","Ecuador","Ecuador","Ecuador","Ecuador","Ecuador"
"STR_COUNTRY_EGYPT","Egypt","Egypt","Egypt","Egypt","Egypt","Egypt","Egypt","Egypt","Egypt","Egypt","Egypt","Egypt","Egypt"
"STR_COUNTRY_ESTONIA","Estonia","Estonia","Estonia","Estonia","Estonia","Estonia","Estonia","Estonia","Estonia","Estonia","Estonia","Estonia","Estonia"
"STR_COUNTRY_FINLAND","Finland","Finland","Finland","Finland","Finland","Finland","Finland","Finland","Finland","Finland","Finland","Finland","Finland"
"STR_COUNTRY_FRANCE","France","France","France","France","France","France","France","France","France","France","France","France","France"
"STR_COUNTRY_GERMANY","Germany","Germany","Germany","Germany","Germany","Germany","Germany","Germany","Germany","Germany","Germany","Germany","Germany"
"STR_COUNTRY_GREECE","Greece","Greece","Greece","Greece","Greece","Greece","Greece","Greece","Greece","Greece","Greece","Greece","Greece"
"STR_COUNTRY_HUNGARY","Hungary","Hungary","Hungary","Hungary","Hungary","Hungary","Hungary","Hungary","Hungary","Hungary","Hungary","Hungary","Hungary"
"STR_COUNTRY_INDIA","India","India","India","India","India","India","India","India","India","India","India","India","India"
"STR_COUNTRY_INDONESIA","Indonesia","Indonesia","Indonesia","Indonesia","Indonesia","Indonesia","Indonesia","Indonesia","Indonesia","Indonesia","Indonesia","Indonesia","Indonesia"
"STR_COUNTRY_IRAN","Iran","Iran","Iran","Iran","Iran","Iran","Iran","Iran","Iran","Iran","Iran","Iran","Iran"
"STR_COUNTRY_IRELAND","Ireland","Ireland","Ireland","Ireland","Ireland","Ireland","Ireland","Ireland","Ireland","Ireland","Ireland","Ireland","Ireland"
"STR_COUNTRY_ISRAEL","Israel","Israel","Israel","Israel","Israel","Israel","Israel","Israel","Israel","Israel","Israel","Israel","Israel"
"STR_COUNTRY_ITALY","Italy","Italy","Italy","Italy","Italy","Italy","Italy","Italy","Italy","Italy","Italy","Italy","Italy"
"STR_COUNTRY_JAPAN","Japan","Japan","Japan","Japan","Japan","Japan","Japan","Japan","Japan","Japan","Japan","Japan","Japan"
"STR_COUNTRY_JORDAN","Jordan","Jordan","Jordan","Jordan","Jordan","Jordan","Jordan","Jordan","Jordan","Jordan","Jordan","Jordan","Jordan"
"STR_COUNTRY_LATVIA","Latvia","Latvia","Latvia","Latvia","Latvia","Latvia","Latvia","Latvia","Latvia","Latvia","Latvia","Latvia","Latvia"
"STR_COUNTRY_LEBANON","Lebanon","Lebanon","Lebanon","Lebanon","Lebanon","Lebanon","Lebanon","Lebanon","Lebanon","Lebanon","Lebanon","Lebanon","Lebanon"
"STR_COUNTRY_LITHUANIA","Lithuania","Lithuania","Lithuania","Lithuania","Lithuania","Lithuania","Lithuania","Lithuania","Lithuania","Lithuania","Lithuania","Lithuania","Lithuania"
"STR_COUNTRY_LUXEMBOURG","Luxembourg","Luxembourg","Luxembourg","Luxembourg","Luxembourg","Luxembourg","Luxembourg","Luxembourg","Luxembourg","Luxembourg","Luxembourg","Luxembourg","Luxembourg"
"STR_COUNTRY_MALAYSIA","Malaysia","Malaysia","Malaysia","Malaysia","Malaysia","Malaysia","Malaysia","Malaysia","Malaysia","Malaysia","Malaysia","Malaysia","Malaysia"
"STR_COUNTRY_MALTA","Malta","Malta","Malta","Malta","Malta","Malta","Malta","Malta","Malta","Malta","Malta","Malta","Malta"
"STR_COUNTRY_MEXICO","Mexico","Mexico","Mexico","Mexico","Mexico","Mexico","Mexico","Mexico","Mexico","Mexico","Mexico","Mexico","Mexico"
"STR_COUNTRY_MONGOLIA","Mongolia","Mongolia","Mongolia","Mongolia","Mongolia","Mongolia","Mongolia","Mongolia","Mongolia","Mongolia","Mongolia","Mongolia","Mongolia"
"STR_COUNTRY_MOROCCO","Morocco","Morocco","Morocco","Morocco","Morocco","Morocco","Morocco","Morocco","Morocco","Morocco","Morocco","Morocco","Morocco"
"STR_COUNTRY_NEPAL","Nepal","Nepal","Nepal","Nepal","Nepal","Nepal","Nepal","Nepal","Nepal","Nepal","Nepal","Nepal","Nepal"
"STR_COUNTRY_NETHERLANDS","Netherland","Netherland","Netherland","Netherland","Netherland","Netherland","Netherland","Netherland","Netherland","Netherland","Netherland","Netherland","Netherland"
"STR_COUNTRY_NEW_ZEALAND","New Zealand","New Zealand","New Zealand","New Zealand","New Zealand","New Zealand","New Zealand","New Zealand","New Zealand","New Zealand","New Zealand","New Zealand","New Zealand"
"STR_COUNTRY_NIGERIA","Nigeria","Nigeria","Nigeria","Nigeria","Nigeria","Nigeria","Nigeria","Nigeria","Nigeria","Nigeria","Nigeria","Nigeria","Nigeria"
"STR_COUNTRY_NORWAY","Norway","Norway","Norway","Norway","Norway","Norway","Norway","Norway","Norway","Norway","Norway","Norway","Norway"
"STR_COUNTRY_PAKISTAN","Pakistan","Pakistan","Pakistan","Pakistan","Pakistan","Pakistan","Pakistan","Pakistan","Pakistan","Pakistan","Pakistan","Pakistan","Pakistan"
"STR_COUNTRY_PARAGUAY","Paraguay","Paraguay","Paraguay","Paraguay","Paraguay","Paraguay","Paraguay","Paraguay","Paraguay","Paraguay","Paraguay","Paraguay","Paraguay"
"STR_COUNTRY_PERU","Peru","Peru","Peru","Peru","Peru","Peru","Peru","Peru","Peru","Peru","Peru","Peru","Peru"
"STR_COUNTRY_PHILIPPINES","Philippines","Philippines","Philippines","Philippines","Philippines","Philippines","Philippines","Philippines","Philippines","Philippines","Philippines","Philippines","Philippines"
"STR_COUNTRY_POLAND","Poland","Poland","Poland","Poland","Poland","Poland","Poland","Poland","Poland","Poland","Poland","Poland","Poland"
"STR_COUNTRY_PORTUGAL","Portugal","Portugal","Portugal","Portugal","Portugal","Portugal","Portugal","Portugal","Portugal","Portugal","Portugal","Portugal","Portugal"
"STR_COUNTRY_ROMANIA","Romania","Romania","Romania","Romania","Romania","Romania","Romania","Romania","Romania","Romania","Romania","Romania","Romania"
"STR_COUNTRY_RUSSIA","Russia","Russia","Russia","Russia","Russia","Russia","Russia","Russia","Russia","Russia","Russia","Russia","Russia"
"STR_COUNTRY_SLOVAKIA","Slovakia","Slovakia","Slovakia","Slovakia","Slovakia","Slovakia","Slovakia","Slovakia","Slovakia","Slovakia","Slovakia","Slovakia","Slovakia"
"STR_COUNTRY_SLOVENIA","Slovenia","Slovenia","Slovenia","Slovenia","Slovenia","Slovenia","Slovenia","Slovenia","Slovenia","Slovenia","Slovenia","Slovenia","Slovenia"
"STR_COUNTRY_SOUTH_AFRICA","South Africa","South Africa","South Africa","South Africa","South Africa","South Africa","South Africa","South Africa","South Africa","South Africa","South Africa","South Africa","South Africa"
"STR_COUNTRY_SOUTH_KOREA","Korea","Korea","Korea","Korea","Korea","Korea","Korea","Korea","Korea","Korea","Korea","Korea","Korea"
"STR_COUNTRY_SPAIN","Spain","Spain","Spain","Spain","Spain","Spain","Spain","Spain","Spain","Spain","Spain","Spain","Spain"
"STR_COUNTRY_SWEDEN","Sweden","Sweden","Sweden","Sweden","Sweden","Sweden","Sweden","Sweden","Sweden","Sweden","Sweden","Sweden","Sweden"
"STR_COUNTRY_SWITZERLAND","Switzerland","Switzerland","Switzerland","Switzerland","Switzerland","Switzerland","Switzerland","Switzerland","Switzerland","Switzerland","Switzerland","Switzerland","Switzerland"
"STR_COUNTRY_SYRIA","Syria","Syria","Syria","Syria","Syria","Syria","Syria","Syria","Syria","Syria","Syria","Syria","Syria"
"STR_COUNTRY_THAILAND","Thailand","Thailand","Thailand","Thailand","Thailand","Thailand","Thailand","Thailand","Thailand","Thailand","Thailand","Thailand","Thailand"
"STR_COUNTRY_TUNISIA","Tunisia","Tunisia","Tunisia","Tunisia","Tunisia","Tunisia","Tunisia","Tunisia","Tunisia","Tunisia","Tunisia","Tunisia","Tunisia"
"STR_COUNTRY_TURKEY","Turkey","Turkey","Turkey","Turkey","Turkey","Turkey","Turkey","Turkey","Turkey","Turkey","Turkey","Turkey","Turkey"
"STR_COUNTRY_UKRAINE","Ukraine","Ukraine","Ukraine","Ukraine","Ukraine","Ukraine","Ukraine","Ukraine","Ukraine","Ukraine","Ukraine","Ukraine","Ukraine"
"STR_COUNTRY_UK","UK","UK","UK","UK","UK","UK","UK","UK","UK","UK","UK","UK","UK"
"STR_COUNTRY_USA","USA","USA","USA","USA","USA","USA","USA","USA","USA","USA","USA","USA","USA"
"STR_COUNTRY_URUGUAY","Uruguay","Uruguay","Uruguay","Uruguay","Uruguay","Uruguay","Uruguay","Uruguay","Uruguay","Uruguay","Uruguay","Uruguay","Uruguay"
"STR_COUNTRY_VENEZUELA","Venezuela","Venezuela","Venezuela","Venezuela","Venezuela","Venezuela","Venezuela","Venezuela","Venezuela","Venezuela","Venezuela","Venezuela","Venezuela"
"STR_COUNTRY_VIETNAM","Vietnam","Vietnam","Vietnam","Vietnam","Vietnam","Vietnam","Vietnam","Vietnam","Vietnam","Vietnam","Vietnam","Vietnam","Vietnam"
,,,,,,,,,,,,,
"//-----------------------------------------------------------------------------",,,,,,,,,,,,,
"// Language enum :",,,,,,,,,,,,,
"//-----------------------------------------------------------------------------",,,,,,,,,,,,,
,,,,,,,,,,,,,
"STR_LNG_CZECH","Czech","Czech","Czech","Czech","Czech","Czech","Czech","Czech","Czech","Czech","Czech","Czech","Czech"
"STR_LNG_DUTCH","Dutch","Dutch","Dutch","Dutch","Dutch","Dutch","Dutch","Dutch","Dutch","Dutch","Dutch","Dutch","Dutch"
"STR_LNG_ENGLISH","English","English","English","English","English","English","English","English","English","English","English","English","English"
"STR_LNG_FINNISH","Finnish","Finnish","Finnish","Finnish","Finnish","Finnish","Finnish","Finnish","Finnish","Finnish","Finnish","Finnish","Finnish"
"STR_LNG_FRENCH","French","French","French","French","French","French","French","French","French","French","French","French","French"
"STR_LNG_GERMAN","German","German","German","German","German","German","German","German","German","German","German","German","German"
"STR_LNG_HUNGARIAN","Hungarian","Hungarian","Hungarian","Hungarian","Hungarian","Hungarian","Hungarian","Hungarian","Hungarian","Hungarian","Hungarian","Hungarian","Hungarian"
"STR_LNG_JAPANESE","Japanese","Japanese","Japanese","Japanese","Japanese","Japanese","Japanese","Japanese","Japanese","Japanese","Japanese","Japanese","Japanese"
"STR_LNG_POLISH","Polish","Polish","Polish","Polish","Polish","Polish","Polish","Polish","Polish","Polish","Polish","Polish","Polish"
"STR_LNG_PORTUGUESE","Portugese","Portugese","Portugese","Portugese","Portugese","Portugese","Portugese","Portugese","Portugese","Portugese","Portugese","Portugese","Portugese"
"STR_LNG_RUSSIAN","Russian","Russian","Russian","Russian","Russian","Russian","Russian","Russian","Russian","Russian","Russian","Russian","Russian"
"STR_LNG_SPANISH","Spanish","Spanish","Spanish","Spanish","Spanish","Spanish","Spanish","Spanish","Spanish","Spanish","Spanish","Spanish","Spanish"
"STR_LNG_TURKISH","Turkish","Turkish","Turkish","Turkish","Turkish","Turkish","Turkish","Turkish","Turkish","Turkish","Turkish","Turkish","Turkish"
,,,,,,,,,,,,,
"//-----------------------------------------------------------------------------",,,,,,,,,,,,,
"// Date format enum :",,,,,,,,,,,,,
"//-----------------------------------------------------------------------------",,,,,,,,,,,,,
,,,,,,,,,,,,,
"STR_DATE_FORMAT_DDMMYYYY","DD MM RRRR","DD MM JJJJ","DD MM YYYY","PP KK VVVV","JJ MM AAAA","TT MM JJJJ","Nap Hónap Év","ヒ/ツキ/ネン","DD MM RRRR","DD MM AAAA","ДД ММ ГГГГ","DD MM AAAA","GG AA YYYY"
"STR_DATE_FORMAT_MMDDYYYY","MM DD RRRR","MM DD JJJJ","MM DD YYYY","KK PP VVVV","MM JJ AAAA","MM TT JJJJ","Hónap Nap Év","ツキ/ヒ/ネン","MM DD RRRR","MM DD AAAA","ММ ДД ГГГГ","MM DD AAAA","AA GG YYYY"
"STR_DATE_FORMAT_YYYYMMDD","RRRR MM DD","JJJJ MM DD","YYYY MM DD","VVVV KK PP","AAAA MM JJ","JJJJ MM TT","Év Hónap Nap","ネン/ツキ/ヒ","RRRR MM DD","AAAA MM DD","ГГГГ ММ ДД","AAAA MM DD","YYYY AA GG"
"STR_DATE_FORMAT_YYYYDDMM","RRRR DD MM","JJJJ DD MM","YYYY DD MM","VVVV PP KK","AAAA JJ MM","JJJJ TT MM","Év Nap Hónap","ネン/ヒ/ツキ","RRRR DD MM","AAAA DD MM","ГГГГ ДД ММ","AAAA DD MM","YYYY GG AA"
"STR_DATE_FORMAT_DDMMMYYYY","DD Mmm RRRR","DD Mmm JJJJ","DD Mmm YYYY","PP Kkk VVVV","JJ Mmm AAAA","TT Mmm JJJJ","Nap Hónapnév Év","ヒ/ツキ/ネン","DD Mmm RRRR","DD Mmm AAAA","ДД Ммм ГГГГ","DD Mmm AAAA","GG Aaa YYYY"
"STR_DATE_FORMAT_MMMDDYYYY","Mmm DD RRRR","Mmm DD JJJJ","Mmm DD YYYY","Kkk PP VVVV","Mmm JJ AAAA","Mmm TT JJJJ","Hónapnév Nap Év","ツキ/ヒ/ネン","Mmm DD RRRR","Mmm DD AAAA","Ммм ДД ГГГГ","Mmm DD AAAA","Aaa GG YYYY"
"STR_DATE_FORMAT_YYYYMMMDD","RRRR Mmm DD","JJJJ Mmm DD","YYYY Mmm DD","VVVV Kkk PP","AAAA Mmm JJ","JJJJ Mmm TT","Év Hónapnév Nap","ネン/ツキ/ヒ","RRRR Mmm DD","AAAA Mmm DD","ГГГГ Ммм ДД","AAAA Mmm DD","YYYY Aaa GG"
"STR_DATE_FORMAT_YYYYDDMMM","RRRR DD Mmm","JJJJ DD Mmm","YYYY DD Mmm","VVVV PP Kkk","AAAA JJ Mmm","JJJJ TT Mmm","Év Nap Hónapnév","ネン/ヒ/ツキ","RRRR DD Mmm","AAAA DD Mmm","ГГГГ ДД Ммм","AAAA DD Mmm","YYYY GG Aaa"
,,,,,,,,,,,,,
"//-----------------------------------------------------------------------------",,,,,,,,,,,,,
"// Time format enum :",,,,,,,,,,,,,
"//-----------------------------------------------------------------------------",,,,,,,,,,,,,
,,,,,,,,,,,,,
"STR_TIME_FORMAT_24","24 hodin","24 uur","24 hours","24 h","24 heures","24 Stunden","24 órás","24ジカンヒョウキ","24 godzinny","24 horas","24 часа","24 horas","24 saat"
"STR_TIME_FORMAT_12","12 hodin","12 uur","12 hours","12 h","12 heures","12 Stunden","12 órás","12ジカンヒョウキ","12 godzinny","12 horas","12 часов","12 horas","12 saat"
,,,,,,,,,,,,,
"//-----------------------------------------------------------------------------",,,,,,,,,,,,,
"// Daylight saving time enum :",,,,,,,,,,,,,
"//-----------------------------------------------------------------------------",,,,,,,,,,,,,
,,,,,,,,,,,,,
"STR_DST_TYPE_OFF","Vypnuto","Uit","Off","Pois","Off","Aus","Kikapcsol","オフ","Wył.","Delisgar","Выкл","Apagar","Kapalı"
"STR_DST_TYPE_EU","EU","EU","EU","EU","EU","EU","EU","EU","EU","EU","Европа","EU","Avrupa saati"
"STR_DST_TYPE_US","US","US","US","US","US","US","USA","アメリカ","US","US","США","USA","Amerika saati"
,,,,,,,,,,,,,
"//-----------------------------------------------------------------------------",,,,,,,,,,,,,
"// Units enum :",,,,,,,,,,,,,
"//-----------------------------------------------------------------------------",,,,,,,,,,,,,
,,,,,,,,,,,,,
"STR_UNITS_KG","kg","kg","kg","kg","kg","kg","kg","kg","kg","kg","Кг","kg","kg"
"STR_UNITS_G","g","g","g","g","g","g","g","g","g","g","Гр","g","gr"
"STR_UNITS_LB","lb","lb","lb","lb","lb","lb","lb","lb","lb","lb","Ф","lb","lb"
,,,,,,,,,,,,,
"//-----------------------------------------------------------------------------",,,,,,,,,,,,,
"// Saving mode enum :",,,,,,,,,,,,,
"//-----------------------------------------------------------------------------",,,,,,,,,,,,,
,,,,,,,,,,,,,
"STR_SAVING_MODE_AUTOMATIC","Automaticky","Automatisch","Automatic","Automaattinen","Automatique","Automatisch","Automata","ジドウ","Automatyczny","Automático","Автоматическая","Automático","Otomatik"
"STR_SAVING_MODE_MANUAL","Ručně","Handmatig","Manual","Manuaalinen","Manuel","Manuell","Kézi","シュドウ","Ręczny","Manual","Ручная","Manual","Elle"
"STR_SAVING_MODE_MANUAL_BY_SEX","Ručně s pohlavím","Sexe selecteren","Manual by sex","Manuaalinen uros/naaras","Manuel par sexe","Manuell n. Geschlecht","Kézi nemenkénti","シュドウセイベツホゾン","Ręczny wg płci","Manual por sexo","Ручная по полу","Manual por sexo","Cinsiyet ayrimi"
,,,,,,,,,,,,,
"//-----------------------------------------------------------------------------",,,,,,,,,,,,,
"// Weight sorting enum :",,,,,,,,,,,,,
"//-----------------------------------------------------------------------------",,,,,,,,,,,,,
,,,,,,,,,,,,,
"STR_WEIGHT_SORTING_NONE","Žádné","Geen geldige waarde","None","Ei","Aucun","Kein","Semmi","ナシ","Brak","Nenhum ","Без","Ninguno","Hiçbiri"
"STR_WEIGHT_SORTING_LIGHT_HEAVY","Lehký/Těžký","Licht/Zwaar","Light/Heavy","Kevyet/Painavat","Léger/Lourd","Leicht/Schwer","Könnyű/Nehéz","ケイ/ジュウ","Lekkie/Ciężkie","Leve/Pesado","Легкие/Тяжелые","Ligero/Pesado","Hafif/Agir"
"STR_WEIGHT_SORTING_LIGHT_OK_HEAVY","Lehký/OK/Těžký","Licht/OK/Zwaar","Light/OK/Heavy","Kevyet/OK/Painavat","Léger/OK/Lourd","Leicht/OK/Schwer","Könnyű/Átlag/Nehéz","ケイ/OK/ジュウ","Lekkie/OK/Ciężkie","Leve/OK/Pesado","Легкие/OK/Тяжелые","Ligero/Ok/Pesado","Hafif/Normal/Agir"
,,,,,,,,,,,,,
"//-----------------------------------------------------------------------------",,,,,,,,,,,,,
"// Backlight mode enum :",,,,,,,,,,,,,
"//-----------------------------------------------------------------------------",,,,,,,,,,,,,
,,,,,,,,,,,,,
"STR_BACKLIGHT_MODE_AUTO","Automaticky","Automatisch","Automatic","Automaattinen","Automatique","Automatisch","Automata","ジドウ","Automatyczny","Automático","Автоматически","Automático","Otomatik"
"STR_BACKLIGHT_MODE_ON","Zapnuto","Aan","On","Päällä","On","An","Be","オン","Wł.","Liga","Вкл","Encendido","Acik"
"STR_BACKLIGHT_MODE_OFF","Vypnuto","Uit","Off","Pois","Off","Aus","Ki","オフ","Wył.","Desliga","Выкл","Apagado","Kapali"
,,,,,,,,,,,,,
"//-----------------------------------------------------------------------------",,,,,,,,,,,,,
"// Histogram mode enum :",,,,,,,,,,,,,
"//-----------------------------------------------------------------------------",,,,,,,,,,,,,
,,,,,,,,,,,,,
"STR_HISTOGRAM_MODE_RANGE","Rozsah","Aantal nummers","Range","Alue","Échelle","Bereich","Tartomány","ハンイ","Zakres","Limite","Диапазон","Rango","Hassasiyet"
"STR_HISTOGRAM_MODE_STEP","Krok","Stap","Step","Porrastus","Pas","Schrittweite","Lép","ステップ","Krok","Passo","Установить","Pago","Olcu birimi"
,,,,,,,,,,,,,
"//-----------------------------------------------------------------------------",,,,,,,,,,,,,
"// Display mode enum :",,,,,,,,,,,,,
"//-----------------------------------------------------------------------------",,,,,,,,,,,,,
,,,,,,,,,,,,,
"STR_DISPLAY_MODE_BASIC","Základní","Basis","Basic","Perustila","Basique","Einfach","Alap","キホンガメンモード","Podstawowy","Basico","Базовая","Básico","Basit"
"STR_DISPLAY_MODE_ADVANCED","Rozšířené","Alle waarden","Advanced","Edistynyt","Avancée","Erweitert","Ajánlott","ショウサイガメンモード","Zaawansowany","Avançado","Улучшенный","Avanzado","Detaylı"
"STR_DISPLAY_MODE_STRONG","Zvětšené","Groot","Large","Iso","Large","Groß","Nagy","カクダイガメンモード","Duży","Grande","Большой","Grande","Buyuk"
,,,,,,,,,,,,,
"//-----------------------------------------------------------------------------",,,,,,,,,,,,,
"// Printer protocol enum :",,,,,,,,,,,,,
"//-----------------------------------------------------------------------------",,,,,,,,,,,,,
,,,,,,,,,,,,,
"STR_PROTOCOL_STATISTICS_HISTOGRAM","Statistika a histogram","Statistieken en histogram","Statistics and histogram","Tilastot ja histogrammi","Statistiques et histogramme","Statistik und Histogramm","Statisztika és grafikon","トウケイトヒストグラム","Statystyki i histogram","Estatística e histograma","Статистика и графики","Estadísticas e histograma","Istatistikler ve Grafik"
"STR_PROTOCOL_STATISTICS","Statistika","Statistieken","Statistics","Tilastot","Statistiques","Statistik","Statisztika","トウケイ","Statystyki","Estatística","Статистика","Estadísticas","Istatistikler"
"STR_PROTOCOL_TOTAL_STATISTICS","Celková statistika","Totaal statistieken","Total statistics","Tilastot yhteensä","Statistiques totales","Gesamtstatistik","Összesitett statisztika","ゼントウケイ","Podsumowanie statystyk","Estatística Total","Общая статистика","Total de las estadísticas","Toplam istatistikler"
"STR_PROTOCOL_SAMPLES","Hmotnosti","Gewichten","Weights","Punnitukset","Pesée","Gewichtswerte","Súlyok","タイジュウ","Pomiary wagi","Pesos","Вес","Pesas","Tartim"
,,,,,,,,,,,,,
"//-----------------------------------------------------------------------------",,,,,,,,,,,,,
"// Beep tone enum :",,,,,,,,,,,,,
"//-----------------------------------------------------------------------------",,,,,,,,,,,,,
,,,,,,,,,,,,,
"STR_BEEP_TONE1","Tón 1","Geluidstoon 1","Tone 1","Ääni 1","Tonalité 1","Ton 1","Hang 1","トーン1","Dźwięk 1","Tom 1","Тон 1","Sonido 1","Ses 1"
"STR_BEEP_TONE2","Tón 2","Geluidstoon 2","Tone 2","Ääni 2","Tonalité 2","Ton 2","Hang 2","トーン2","Dźwięk 2","Tom 2","Тон 2","Sonido 2","Ses 2"
"STR_BEEP_TONE3","Tón 3","Geluidstoon 3","Tone 3","Ääni 3","Tonalité 3","Ton 3","Hang 3","トーン3","Dźwięk 3","Tom 3","Тон 3","Sonido 3","Ses 3"
"STR_BEEP_TONE4","Tón 4","Geluidstoon 4","Tone 4","Ääni 4","Tonalité 4","Ton 4","Hang 4","トーン4","Dźwięk 4","Tom 4","Тон 4 ","Sonido 4","Ses 4"
"STR_BEEP_TONE5","Tón 5","Geluidstoon 5","Tone 5","Ääni 5","Tonalité 5","Ton 5","Hang 5","トーン5","Dźwięk 5","Tom 5","Тон 5","Sonido 5","Ses 5"
"STR_BEEP_TONE6","Tón 6","Geluidstoon 6","Tone 6","Ääni 6","Tonalité 6","Ton 6","Hang 6","トーン6","Dźwięk 6","Tom 6","Тон 6","Sonido 6","Ses 6"
"STR_BEEP_TONE7","Tón 7","Geluidstoon 7","Tone 7","Ääni 7","Tonalité 7","Ton 7","Hang 7","トーン7","Dźwięk 7","Tom 7","Тон 7","Sonido 7","Ses 7"
"STR_BEEP_TONE8","Tón 8","Geluidstoon 8","Tone 8","Ääni 8","Tonalité 8","Ton 8","Hang 8","トーン8","Dźwięk 8","Tom 8","Тон 8","Sonido 8","Ses 8"
"STR_BEEP_MELODY1","Melodie 1","Melodie 1","Melody 1","Melodia 1","Mélodie 1","Melodie 1","Dallam 1","メロディ1","Melodia 1","Melodia 1","Мелодия 1","Melodía 1","Melodi 1"
"STR_BEEP_MELODY2","Melodie 2","Melodie 2","Melody 2","Melodia 2","Mélodie 2","Melodie 2","Dallam 2","メロディ2","Melodia 2","Melodia 2","Мелодия 2","Melodía 2","Melodi 2"
"STR_BEEP_MELODY3","Melodie 3","Melodie 3","Melody 3","Melodia 3","Mélodie 3","Melodie 3","Dallam 3","メロディ3","Melodia 3","Melodia 3","Мелодия 3","Melodía 3","Melodi 3"
"STR_BEEP_MELODY4","Melodie 4","Melodie 4","Melody 4","Melodia 4","Mélodie 4","Melodie 4","Dallam 4","メロディ4","Melodia 4","Melodia 4","Мелодия 4","Melodía 4","Melodi 4"
,,,,,,,,,,,,,
"//-----------------------------------------------------------------------------",,,,,,,,,,,,,
"// Capacity enum :",,,,,,,,,,,,,
"//-----------------------------------------------------------------------------",,,,,,,,,,,,,
,,,,,,,,,,,,,
"STR_CAPACITY_NORMAL","30kg/60lb","30kg/60lb","30kg/60lb","30kg/60lb","30kg/60lb","30kg/60lb","30kg/60lb","30kg","30kg/60lb","30kg/60lb","30кг/60Ф","30kg/60lb","30kg/60lb"
"STR_CAPACITY_EXTENDED","50kg/100lb","50kg/100lb","50kg/100lb","50kg/100lb","50kg/100lb","50kg/100lb","50kg/100lb","50kg","50kg/100lb","50kg/100lb","50кг/100Ф","50kg/100lb","50kg/100lb"
,,,,,,,,,,,,,
"//-----------------------------------------------------------------------------",,,,,,,,,,,,,
"// Charger screen :",,,,,,,,,,,,,
"//-----------------------------------------------------------------------------",,,,,,,,,,,,,
,,,,,,,,,,,,,
"STR_CHARGING","Nabíjení","Batterij laadt op","Charging","Latautuu","En charge","Laden","Töltés","ジュウデンチュウ","Ładowanie","Carregando","Зарядите батарею","Cargando","Sarj ediyor"
"STR_CHARGED","Nabito","Bettaerij opgeladen","Charged","Ladattu","Chargée","Geladen","Feltöltve","ジュウデンカンリョウ","Naładowana","Carregado","Батарея разряжена","Cargado","Batarya dolu"
,,,,,,,,,,,,,
"//-----------------------------------------------------------------------------",,,,,,,,,,,,,
"// Wait screen :",,,,,,,,,,,,,
"//-----------------------------------------------------------------------------",,,,,,,,,,,,,
,,,,,,,,,,,,,
"STR_WAIT","Čekejte prosím","Aub wachten","Please wait","Odota","Veuillez patienter","Bitte warten","Várjon","タイキ","Proszę czekać","Favor esperar","Подождите","Por favor espere","Lutfen bekleyiniz"
,,,,,,,,,,,,,
"//-----------------------------------------------------------------------------",,,,,,,,,,,,,
"// No memory screen :",,,,,,,,,,,,,
"//-----------------------------------------------------------------------------",,,,,,,,,,,,,
,,,,,,,,,,,,,
"STR_NO_MEMORY","Paměť je plná","Geheugen is vol","Memory full","Muisti täynnä","Mémoire pleine","Speicher voll","Memória tele","ヨウリョウガイッパイデス","Pamięć pełna","Memória cheia","Память заполнена","Memoria completa","Hafiza dolu"
,,,,,,,,,,,,,
"//-----------------------------------------------------------------------------",,,,,,,,,,,,,
"// Weighing screen :",,,,,,,,,,,,,
"//-----------------------------------------------------------------------------",,,,,,,,,,,,,
,,,,,,,,,,,,,
"STR_NO_FILE","<Bez souboru>","<geen bestand>","<No file>","<Ei tiedostoa>","<Pas de fichier>","<Keine Datei>","<Nincs adat>","<No file>","<Brak pliku>","<Nenhum arquivo>","<Hет файла>","<No hay archivo>","<Boş>"
,,,,,,,,,,,,,
"//-----------------------------------------------------------------------------",,,,,,,,,,,,,
"// Off screen :",,,,,,,,,,,,,
"//-----------------------------------------------------------------------------",,,,,,,,,,,,,
,,,,,,,,,,,,,
"STR_OFF","VYPNUTO","UIT","OFF","POIS","OFF","AUS","KIKAPCSOLVA","オフ","WYŁ.","DESLIGA","ВЫКЛ","APAGADO","KAPALI"
,,,,,,,,,,,,,
"//-----------------------------------------------------------------------------",,,,,,,,,,,,,
"// Main menu :",,,,,,,,,,,,,
"//-----------------------------------------------------------------------------",,,,,,,,,,,,,
,,,,,,,,,,,,,
"STR_MAIN_MENU","Hlavní nabídka","Hoofd menu","Main menu","Päävalikko","Menu principal","Hauptmenue","Főmenü","メインメニュー","Menu główne","Menu principal","Меню","Menú principal","Ana menu"
"STR_WEIGHING","Vážení","Wegen","Weighing","Punnitukset","Pesage","Wiegen","Mérés","ケイソク","Ważenie","Pesando","Взвешивание","Pesando","Canli agirliklar"
"STR_STATISTICS","Statistika","Statistieken","Statistics","Tilastot","Statistiques","Statistik","Statisztika","トウケイ","Statystyki","Estatística","Статистика","Estadísticas","Istatistikler"
"STR_SETTINGS","Uživatelské nastavení","Gebruikers instellingen","User settings","Käyttöasetukset","Paramètre utilisateur","Benutzereinstellungen","Beállítások","ユーザーセッテイ","Ustawienia użytkownika","Ajuste do usuário","Используемые установки","Rutina del usuario","Kullanici ayarlari"
"STR_CONFIGURATION","Konfigurace","Configuratie","Configuration","Asetukset","Configuration","Konfiguration","Testreszabás","カンキョウセッテイ","Konfiguracja","Configuração","Конфигурация","Configuración","Kurulum"
"STR_MAINTENANCE","Servisní nastavení","Onderhoud","Maintenance","Ylläpito","Maintenance","Wartung","Karbantartás","メンテナンス","Konserwacja","Manutenção","Руководство","Mantenimiento","Ayarlar"
,,,,,,,,,,,,,
"//STR_DELETE_SAMPLE „Delete sample“",,,,,,,,,,,,,
"STR_DELETE_LAST_SAMPLE","Opravdu smazat poslední\nhmotnost ?","Laatste gewicht echt verwijderen?","Really delete last weight ?","Haluatko varmasti poistaa\nviimeisimmän punnituksen?","Voulez-vous vraiment\nsupprimer la derniere pesée?","Wollen Sie den letzten\nGewichtswert wirklich löschen?","Törli az utolsó mérést?","サイゴノタイジュウヲホント\nウニサクジョシマスカ?","Czy na pewno chcesz usunąć\nostatni pomiar wagi?","Relamente deletar ultimo peso?","Удалить последнее вес?","¿Realmente anular\nel último peso?","Son tartim silinsin mi?"
,,,,,,,,,,,,,
"//-----------------------------------------------------------------------------",,,,,,,,,,,,,
"// Weighing menu :",,,,,,,,,,,,,
"//-----------------------------------------------------------------------------",,,,,,,,,,,,,
,,,,,,,,,,,,,
"STR_ACTIVE_FILE","Aktivní soubor","Actief bestand","Active file","Aktiivinen tiedosto","Fichier actif","Aktive Datei","Aktuális adat","アクティブファイル","Aktywny plik","Ativar arquivo","Нормальный файл","Archivo activo","Aktif dosya"
"STR_VIEW_FILE","Zobrazit soubor","Bestand inzien","View file","Näytä tiedosto","Voir le fichier","Datei öffnen","Adat mutatása","ファイルヲミル","Wyświetl plik","Ver arquivo","Вид даты файла","Mirar el archivo","Dosyayi goster"
"STR_NUMBER_OF_BIRDS","Počet kusů","Aantal dieren","Number of birds","Lintujen lukumäärä","Nombre d'animaux","Anzahl Vögel","Madarak száma","ハスウ","Ilość ptaków","Número de aves","Количество птицы","Número de aves","Hayvan adedi"
"STR_LIMIT","Mez","Gewichten instellen","Limit","Raja","Limite","Grenze","Határ","リミット","Limit","Limite","Лимит","Límite","Limit"
"STR_LOW_LIMIT","Spodní mez","Laagste gewicht instellen","Low limit","Alaraja","Limite basse","Untere Grenze","Alacsony határ","カゲン","Niski limit","Limite baixo","Нижний предел","Límite bajo","Alt limit"
"STR_HIGH_LIMIT","Horní mez","Hoogste gewicht instellen","High limit","Yläraja","Limite haute","Obere Grenze","Magas határ","ジョウゲン","Wysoki limit","Limite alto","Верхний предел","Límite alto","Ust limit"
"STR_CLEAR_FILE","Smazat hmotnosti","Verwijder gewichten","Delete weights","Poista punnitukset","Effacer la pesée","Gewichtswerte löschen","Súlyok törlése","タイジュウヲサクジョ","Usuń ważenia","Deletar pesos","Удалить веса","Anular pesos","Tartimlari sil"
"STR_CLEAR_ALL_FILES","Smazat všechny hmotnosti","Verwijder alle gewichten","Delete all weights","Poista kaikki punnitukset","Effacer toutes les pesées","Alle Gewichtswerte löschen","Összes súly törlése","スベテノタイジュウヲサクジョ","Usuń wszystkie ważenia","Deletar todos os pesos","Удалить все веса","Anulas todos los pesos","Tum tartimlari sil"
,,,,,,,,,,,,,
"// Weighing menu messages :",,,,,,,,,,,,,
"STR_REALLY_CLEAR","Opravdu smazat hmotnosti\nv souboru ?","Gewichten in bestand echt\nverwijderen?","Really delete weights in the file ?","Haluatko varmasti poistaa\npunnitukset tiedostosta?","Voulez-vous vraiment supprimer\nles pesées dans ce fichier?","Wirklich alle Gewichtswerte\nin der Datei löschen?","Súly törlése?","ファイルナイノタイジュウヲホ\nントウニサクジョシマスカ?","Czy na pewno chcesz\nusunąć ważenia z pliku?","Relamente deletar pesos\nno arquivo?","Удалить веса из файла?","¿Realmente anular los pesos\nen este archivo?","Tartim gercekten\nsilinsin mi?"
"STR_REALLY_CLEAR_ALL","Opravdu smazat hmotnosti\nve všech souborech ?","Gewichten in alle bestanden\nechter verwijderen?","Really delete weights in all files ?","Haluatko varmasti poistaa\npunnitukset kaikista tiedostoista?","Voulez-vous vraiment supprimer\nles pesées dans tous les fichiers?","Wirklich Gewichtswerte\nin allen Dateien löschen?","Összes súly törlése?","ゼンファイルノタイジュウヲホン\nトウニサクジョシマスカ?","Czy na pewno chcesz usunąć\nważenia ze wszystkich plików?","Relamente deletar pesos\nem todos os arquivos?","Удалить веса из всех файлов?","¿Realmente anular los pesos\nen todos los archivos?","Tum tartimlar gercekten\nsilinsin mi?"
,,,,,,,,,,,,,
"//-----------------------------------------------------------------------------",,,,,,,,,,,,,
"// Statistics menu :",,,,,,,,,,,,,
"//-----------------------------------------------------------------------------",,,,,,,,,,,,,
,,,,,,,,,,,,,
"STR_TOTAL_STATISTICS","Celková statistika","Totale statistieken","Total statistics","Tilastot yhteensä","Statistiques totales","Gesamtstatistik","Összesített statisztika","ゼントウケイ","Podsumowanie statystyk","Estatística total","Общая статистика","Total de estadísticas","Toplam istatistikler"
"STR_COMPARE_FILES","Porovnat soubory","Vergelijk bestanden","Compare files","Vertaile tiedostoja","Comparer les fichiers","Dateien vergleichen","Összehasonlítás","ファイルヲヒカク","Porównaj pliki","Comparar arquivos","Сравнение фалов","Comparar archivos","Dosyalari karsilastir"
"STR_PRINT","Tisk","Afdrukken","Print","Tulosta","Imprimer","Drucken","Nyomtat","インサツ","Drukuj","Imprimir","Печать","Imprimir","Yazdir"
,,,,,,,,,,,,,
"// Total statistics selection menu :",,,,,,,,,,,,,
"STR_ONE_FILE","Jeden soubor","Een bestand","One file","Yksi tiedosto","Un fichier","Eine Datei","Egy adat","ヒトツノファイル","Jeden plik","Um arquivo","Один файл","Un archivo","Tek dosya"
"STR_ONE_GROUP","Skupina souborů","Een groep","One group","Yksi ryhmä","Un groupe","Eine Gruppe","Egy csoport","ヒトツノグループ","Jedna grupa","Um grupo","Одна группа","Un grupo","Grup"
"STR_MORE_FILES","Více souborů","Meer bestanden","More files","Useampi tiedosto","Plus de fichier","Weitere Dateien","Több adat kiválasztása","サラナルファイル","Więcej plików","Mais arquivos","Много файлов","Mas archivos","Coklu dosya"
"STR_ALL_FILES","Všechny soubory","Alle bestanden","All files","Kaikki tiedostot","Tous les fichiers","Alle Dateien","Összes adat","スベテノファイル","Wszystkie pliki","Todos os arquivos","Все файлы","Todos los archivos","Tum dosyalar"
,,,,,,,,,,,,,
"// Total statistics messages :",,,,,,,,,,,,,
"STR_NO_FILES_SELECTED","Není vybraný žádný soubor","Geen bestanden geselecteerd","No files selected","Tiedostoja ei ole valittu","Pas de fichiers choisis","Keine Datei ausgewählt","Nincs adat választva","ファイルガセンタクサレテイマセン","Brak zaznaczonych plików","Nenhum arquivo selecionado","Не выбран файл","No hay archivos seleccionados","Hicbir dosya secilmedi"
,,,,,,,,,,,,,
"// Compare file messages :",,,,,,,,,,,,,
"STR_TOTAL","Celkem","Totaal statistieken","Total","Yhteensä","Total","Summe","Összes","トータル","Suma","Total","Всего","Total","Toplam"
,,,,,,,,,,,,,
"// Print messages :",,,,,,,,,,,,,
"STR_ENTER_PROTOCOL_TYPE","Zadejte typ protokolu","Maak een keuze","Select report type","Valitse protokolla","Choisir le type de protocole","Protokolltyp auswählen","Jelentés típusa","レポートノタイプヲセンタク","Wybierz typ raportu","Selecionar tipo de protocolo","Выберите тип протокола","Seleccionar tipo de informe","Rapor tipini seciniz"
,,,,,,,,,,,,,
"//-----------------------------------------------------------------------------",,,,,,,,,,,,,
"// Settings menu :",,,,,,,,,,,,,
"//-----------------------------------------------------------------------------",,,,,,,,,,,,,
,,,,,,,,,,,,,
"STR_DISPLAY_BACKLIGHT","Podsvit displeje","Stel schermverlichting in","Display backlight","Näytön taustavalo","Luminosité de l'écran","Hintergrundbeleuchtung","Kijelző megvilágítás","バックライトヲヒョウジ","Podświetlenie wyświetlacza","Exibir luz traseira","Яркость","Luz posterior de la pantalla","Ekran aydinlatma"
"STR_DISPLAY_CONTRAST","Kontrast displeje","Stel contrast in","Display contrast","Näytön kontrasti","Contraste de l'écran","Kontrast","Kijelző kontraszt","コントラストヲヒョウジ","Kontrast wyświetlacza","Exibir contraste","Контрастность","Contraste de la pantalla","Ekran kontrasti"
"STR_SAVING_VOLUME","Hlasitost ukládání","Volume opslaan","Saving volume","Tallennusäänen voimakkuus","Enregistrer le volume","Lautstärke","Mentési hangerő","オンリョウヲホゾン","Głośność zapisywania","Salvando volume","Сохранение объема","Bajando el volumen","Kaydet sesi"
"STR_DATE_AND_TIME","Datum a čas","Datum en tijd","Date and time","Pvm ja aika","Date et heure","Datum und Zeit","Dátum és idő","ヒヅケトジカン","Data i godzina","Data e hora","Дата и время","Fecha y hora","Tarih ve saat"
,,,,,,,,,,,,,
"// Settings menu messages :",,,,,,,,,,,,,
"STR_ENTER_DATE","Zadejte datum","Voer datum in","Enter date","Anna pvm","Entrer la date","Datum eingeben","Dátum megadása","ヒヅケヲニュウリョク","Wprowadź datę","Entrar em data","Ввод даты","Introducir fecha","Tarih gir"
"STR_ENTER_TIME","Zadejte čas","Voer tijd in","Enter time","Anna aika","Entrer l'heure","Zeit eingeben","Idő megadása","ジカンヲニュウリョク","Wprowadź godzinę","Entrar em hora","Ввод времени","Introducir hora","Saat gir"
,,,,,,,,,,,,,
"//-----------------------------------------------------------------------------",,,,,,,,,,,,,
"// Configuration menu :",,,,,,,,,,,,,
"//-----------------------------------------------------------------------------",,,,,,,,,,,,,
,,,,,,,,,,,,,
"STR_FILES","Soubory","Bestanden","Files","Tiedostot","Fichiers","Dateien","Adatok","ファイル","Pliki","Arquivos","Файлы","Archivos","Calisilan dosyalar"
"STR_FILE_GROUPS","Skupiny souborů","Bestandsgroepen","File groups","Tiedostoryhmät","Groupes de fichiers","Dateigruppen","Adatcsoportok","ファイルグループ","Grupy pliku","Grupos de arquivos","Файлы групп","Grupos de archivos","Dosya gruplari"
"STR_SAVING","Ukládání","Opslaan","Saving","Tallennus","Sauvegarde","Speichern","Mentés","ホゾンチュウ","Zapisywanie","Salvando","Сохранение объема","Guardar","Kaydet"
"STR_DISPLAY","Displej","Weergeven","Display","Näyttö","Écran","Display","Kijelző","ヒョウジ","Wyświetlanie","Exibir","Дисплей","Exhibir","Ekran"
"STR_SOUNDS","Zvuky","Geluiden","Sounds","Äänet","Sons","Klänge","Hangok","サウンド","Dźwięki","Sons","Звук","Sonidos","Sesler"
"//STR_STATISTICS        Statistics""""",,,,,,,,,,,,,
,,,,,,,,,,,,,
"//-----------------------------------------------------------------------------",,,,,,,,,,,,,
"// Configuration/Files menu :",,,,,,,,,,,,,
"//-----------------------------------------------------------------------------",,,,,,,,,,,,,
,,,,,,,,,,,,,
"STR_CREATE","Vytvořit","Creëren","Create","Luo","Créer","Erzeugen","Új","シンキファイル","Utwórz","Criar","Создать","Crear","Yeni dosya ac"
"STR_EDIT_SAVING_OPTIONS","Parametry ukládání","Opslaan opties bewerken","Edit saving options","Muuta tallennusasetuksia","Editer les options de sauvegarde","Speicheroptionen ändern","Mentési beállítások","ホゾンセッテイヲヘンコウ","Edytuj opcje zapisywania","Editar opções salvas","Редактировать опции","Editar opciones de guardar","Kayit seceneklerini düzenle"
"STR_EDIT_NOTE","Upravit poznámku","Bewerken","Edit note","Muuta kuvausta","Editer une note","Bemerkungstext ändern","Sor szerkesztése","チュウシャクヲヘンシュウ","Edytuj notatkę","Editar notas","Редактировать замечание","Editar nota","Yeni not"
"STR_RENAME","Přejmenovat","Herbenoem","Rename","Nimeä uudelleen","Renommer","Umbenennen","Átnevez","ナマエヲヘンコウ","Zmień nazwę","Renomear","Переименовать","Cambiar nombre","Yeni ad ver"
"STR_DELETE","Smazat","Verwijderen","Delete","Poista","Effacer","Löschen","Töröl","サクジョ","Usuń","Deletar","Удалить","Anular","Sil"
,,,,,,,,,,,,,
"// Files menu messages :",,,,,,,,,,,,,
"STR_ENTER_NOTE","Zadejte poznámku","Notitie invoeren","Enter note","Anna kuvaus","Entrer une note","Bemerkung eingeben","Sor bevitel megadás","チュウシャクヲニュウリョク","Wprowadź notatkę","Entrar em nota","Ввод заметки","Introducir nota","Not gir"
"STR_ENTER_NAME","Zadejte název","Naam invoeren","Enter name","Anna nimi","Entrer un nom","Name eingeben","Név megadás","ナマエヲニュウリョク","Wprowadź nazwę","Entrar em nome","Ввод имени","Introducir nombre","Isim gir"
"STR_FILE_EXISTS","Soubor již existuje","Bestandsnaam bestaat al","File already exists","Tiedosto on jo olemassa","Le fichier existe déjà","Datei bereits vorhanden","Már létező adat","ファイルガスデニソンザイシマス","Plik już istnieje","O arquivo já existe","Файл уже существует","Archivo ya existe","Dosya zaten var"
"STR_NOT_ENOUGH_SPACE","Paměť je plná","Geheugen is vol","Memory full","Muisti täynnä","Mémoire pleine","Speicher voll","Megtelt a memória","ヨウリョウガイッパイデス","Pamięć pełna","Memória cheia","Память заполнена","Memoria completa","Hafıza dolu"
"STR_REALLY_DELETE_FILE","Opravdu smazat soubor ?","Bestand echt verwijderen?","Really delete file ?","Haluatko varmasti poistaa\ntiedoston?","Voulez-vous vraiment supprimer\nce fichier?","Datei wirklich löschen?","Valóban törli?","ホントウニファイルヲ\nサクジョシマスカ?","Czy na pewno chcesz\nusunąć plik?","Realmente deletar o arquivo?","Удалить файл?","¿Realmente anular el archivo?","Dosya gercekten silinsin mi?"
,,,,,,,,,,,,,
"//-----------------------------------------------------------------------------",,,,,,,,,,,,,
"// Configuration/File groups menu :",,,,,,,,,,,,,
"//-----------------------------------------------------------------------------",,,,,,,,,,,,,
,,,,,,,,,,,,,
"//STR_CREATE         Create""""",,,,,,,,,,,,,
"STR_EDIT_FILE_LIST","Upravit seznam souborů","Bestandslijst bewerken","Edit file list","Muokkaa tiedostolistaa","Editer la liste des fichiers","Dateiliste bearbeiten","Adatok szerkesztése","ファイルリストをヘンシュウ","Edytuj listę pliku","Editar lista de arquivo","Редактировать файл лист","Editar la lista de archivos","Gruptaki dosyaları listele"
"//STR_EDIT_NOTE      Edit note""""",,,,,,,,,,,,,
"//STR_RENAME         Rename""""",,,,,,,,,,,,,
"//STR_DELETE         Delete""""",,,,,,,,,,,,,
,,,,,,,,,,,,,
"//STR_ENTER_NOTE        Enter note""""",,,,,,,,,,,,,
"//STR_ENTER_NAME        Enter Name""""",,,,,,,,,,,,,
"STR_GROUP_EXISTS","Skupina již existuje","Groep bestaat al","Group already exists","Ryhmä on jo olemassa","Ce groupe existe déjà","Gruppe bereits vorhanden","Már létező csoport","グループガスデニソンザイシマス","Grupa już istnieje","O grupo já existe","Группа уже существует","Grupo ya existe","Grup zaten var"
"STR_REALLY_DELETE_GROUP","Opravdu smazat skupinu ?","Groep echt verwijderen?","Really delete group ?","Haluatko varmasti poistaa\nryhmän?","Voulez-vous vraiment supprimer\nce groupe?","Gruppe wirklich löschen?","Valóban törli a csoportot?","ホントウニグループヲ\nサクジョシマスカ?","Czy na pewno chcesz\nusunąć grupę?","Realmente deletar o grupo?","Удалит группу?","¿Realmente anular el grupo?","Grup gercekten silinsin mi?"
"//STR_NO_FILES_SELECTED No files selected""""",,,,,,,,,,,,,
"//STR_NOT_ENOUGH_SPACE  Not enough space""""",,,,,,,,,,,,,
,,,,,,,,,,,,,
"//-----------------------------------------------------------------------------",,,,,,,,,,,,,
"// Configuration/Backlight menu :",,,,,,,,,,,,,
"//-----------------------------------------------------------------------------",,,,,,,,,,,,,
,,,,,,,,,,,,,
"STR_MODE","Režim","Schermverlichting","Mode","Tila","Mode","Betriebsart","Mód","モード","Tryb","Modo","Модель","Modalidad","Mod"
"STR_DURATION","Doba podsvitu","Duur","Duration","Kesto","Durée","Dauer","Időtartam","テントウジカン","Czas trwania","Duração","Продолжительность","Duración","Sure"
"STR_INTENSITY","Intenzita","Intensiteit","Intensity","Kirkkaus","Intensité","Intensität","Érzékenység","テントウキョウド","Intensywność","Intensidade","Интенсивность","Intensidad","Siddet"
,,,,,,,,,,,,,
"//-----------------------------------------------------------------------------",,,,,,,,,,,,,
"// Configuration/Display menu :",,,,,,,,,,,,,
"//-----------------------------------------------------------------------------",,,,,,,,,,,,,
,,,,,,,,,,,,,
"STR_BACKLIGHT","Podsvit","Schermverlichting weergeven","Backlight","Taustavalo","Luminosité","Hintergrundbeleuchtung","Megvilágítás","バックライト","Podświetlenie","Luz traseira","Яркость","Luz posterior","Aydinlatma"
"STR_CONTRAST","Kontrast","Contrast","Contrast","Kontrasti","Contraste","Kontrast","Kontraszt","コントラスト","Kontrast","Contraste","Контрастность","Contraste","Kontrast"
"STR_DISPLAY_MODE","Typ zobrazení","Maak keuze","Display mode","Näytön tila","Mode d'affichage","Display Betriebsart","Megjelenítési mód","モードヲヒョウジ","Tryb wyświetlania","Modo de exibição","Модель дисплея","Modo de presentación","Ekran modu"
,,,,,,,,,,,,,
"//-----------------------------------------------------------------------------",,,,,,,,,,,,,
"// Configuration/Sounds menu :",,,,,,,,,,,,,
"//-----------------------------------------------------------------------------",,,,,,,,,,,,,
,,,,,,,,,,,,,
"//STR_SAVING           Saving""""",,,,,,,,,,,,,
"STR_KEYBOARD","Klávesnice","Toetsenbord","Keyboard","Näppäimistö","Clavier","Tastatur","Billentyűzet","キーボード","Klawiatura","Teclado","Клавиатура","Teclado","Tus takimi"
,,,,,,,,,,,,,
"// Sounds/Saving submenu :",,,,,,,,,,,,,
"STR_SAVING_SOUNDS","Zvuky při uložení","Geluiden opslaan","Saving sounds","Tallennusäänet","Sauvegarder le son","Töne abspeichern","Mentési hangok","ホゾンジノサウンド","Dźwięki zapisu","Salvando sons","Сохранить звук","Guardando sonidos","Kayit sesleri"
"STR_DEFAULT_TONE","Standardní zvuk","Default geluid","Default tone","Oletusääni","Tonalité par défaut","Standardsound","Hiba hangja","シッパイジノトーン","Domyślny dźwięk","Falha de tom","Тон сбоя","Tono normal","Uyari sesi"
"STR_TONE_LIGHT","Zvuk pro lehký","Zacht geluid","Tone Light","Ääni Kevyt","Tonalité lumière","Ton Leicht","Könnyű madár jelzés","ホゾンジノトーン(ケイ)","Dźwięk - dla lekkich","Luz de tom","Тон легких","Entonación de luz","Hafif sesi"
"STR_TONE_OK","Zvuk pro OK","Geluid OK","Tone OK","Ääni OK","Tonalité OK","Ton OK","Jó madár jelzés","ホゾンジノトーン(OK)","Dźwięk - dla OK","Tom OK","Тон OK","Tono Ok","Normal sesi"
"STR_TONE_HEAVY","Zvuk pro těžký","Geluid te sterk","Tone Heavy","Ääni Painava","Tonalité lourd","Ton Schwer","Nehéz madár jelzés","ホゾンジノトーン(ジュウ)","Dźwięk - dla ciężkich","Tom Forte","Тон тяжелых","Tono pesado","Agir sesi"
"STR_VOLUME","Hlasitost","Volume opslaan","Volume","Voimakkuus","Volume","Lautstärke","Hangerő","オンリョウ","Głośność","Volume","Громкость","Volumen","Ses"
,,,,,,,,,,,,,
"// Sound/Keyboard submenu :",,,,,,,,,,,,,
"STR_KEYBOARD_SOUNDS","Zvuky klávesnice","Geluiden toetsenbord","Keyboard sounds","Näppäinäänet","Son du clavier","Tastatursignal","Billentyűzet hangja","キーボードノサウンド","Dźwięk klawiatury","Sons do teclado","Тон клавиатуры","Sonidos del teclado","Tus sesi"
"STR_TONE","Tón","Geluid","Tone","Ääni","Tonalité","Ton","Hang","トーン","Dźwięk","Tom","Тон","Tono","Ton"
"//STR_VOLUME           Volume""""",,,,,,,,,,,,,
"STR_SPECIAL_SOUNDS","Speciální zvuky","Speciale geluiden","Special sounds","Erikoisäänet","Sons speciaux","Spezialtöne","Speciális hangok","トクシュオン","Dźwięki specjalne","Sons especiais","Специальный звук","Sonidos especiales","Ozel sesler"
,,,,,,,,,,,,,
"//-----------------------------------------------------------------------------",,,,,,,,,,,,,
"// Configuration/Statistics menu :",,,,,,,,,,,,,
"//-----------------------------------------------------------------------------",,,,,,,,,,,,,
,,,,,,,,,,,,,
"STR_UNIFORMITY_RANGE","Rozsah uniformity","Uniformiteit instellen","Uniformity range","Yhdenmukaisuuden alue","Uniformité de l'échelle","Bereich der Gleichmäßigkeit","Egyöntetűség","キンイツハンイ","Zakres jednorodności","Limite de uniformidade","Одинаковый дмапазон","Rango uniforme","Uniformite araligi"
"STR_HISTOGRAM_MODE","Režim histogramu","Histogram","Histogram mode","Histogrammin tila","Mode de l'histogramme","Histogramm Modus","Grafikon mód","ヒストグラムモード","Tryb histogramu","Modo de histograma","Модель графиков","Modalidad de histrograma","Grafik modu"
"STR_HISTOGRAM_RANGE","Rozsah histogramu","Histogram","Histogram range","Histogrammin alue","Échelle de l'histogramme","Histogramm Bereich","Grafikon","ヒストグラムハンイ","Zakres histogramu","Limite de histograma","Диапазон графиков","Rando de histograma","Grafik araligi"
"STR_HISTOGRAM_STEP","Krok histogramu","Histogram stap","Histogram step","Histogrammin porrastus","Pas de l'histogramme","Histogramm Schritt","Grafikon lépés","ヒストグラムステップ","Krok histogramu","Passo de histograma","Ввод графика","Paso de histograma","Grafik adimi"
,,,,,,,,,,,,,
"//-----------------------------------------------------------------------------",,,,,,,,,,,,,
"// Maintenance menu :",,,,,,,,,,,,,
"//-----------------------------------------------------------------------------",,,,,,,,,,,,,
,,,,,,,,,,,,,
"STR_SCALE_NAME","Jméno váhy","Naam weegschaal","Scale name","Laitteen nimi","Nom du plateau","Waagenname","Mérleg neve","タイジュウケイメイ","Nazwa wagi","Escalar nomes","Имя весов","Nombre de la balanza","Terazi ismi"
"STR_COUNTRY","Země","Land","Country","Maa","Pays","Land","Ország","クニ","Kraj","País","Страна","País","Ulke"
"//STR_WEIGHING                Weighing""""",,,,,,,,,,,,,
"STR_MEMORY","Paměť","Geheugen","Memory","Muisti","Mémoire","Speicher","Memória ","メモリー","Pamięć","Memoria ","Память заполнена","Memoria","Hafiza"
"STR_PRINTER","Tiskárna","Printer","Printer","Tulostin","Imprimante","Drucker","Nyomtató","プリンター","Drukarka","Impressora","Принтер","Impresor","Yazici"
"STR_AUTO_POWER_OFF","Automatické vypnutí","Uitschakelen","Auto power off","Virransäästö","Alimentation auto","Automatische Abschaltung","Automata kikapcsolás","ジドウデンゲンオフ","Automatyczne wył. ","Auto power off","Автоматическое выкл","Apagado automático","Otomatik kapatma"
"STR_PASSWORD","Heslo","Wachtwoord","Password","Salasana","Mot de passe","Passwort","Jelszó","パスワード","Hasło","Senha","Пароль","Contraseña","Sifre"
"STR_RESTORE_FACTORY_DEFAULTS","Obnovit tovární nastavení","Alles opnieuw instellen","Restore factory defaults","Palauta tehdasasetukset","Restaurer paramètres défaut","Auf Werkseinstellungen zurück","Gyári beállítás visszaállítása","ショキセッテイニモドス","Przywróć ustawienia domyślne","Restaurar falhas de fábrica","Востановить фабричные установ.","Restaurar los factores de fábrica","Fabrika ayarlarina don"
,,,,,,,,,,,,,
"// Service menu messages :",,,,,,,,,,,,,
"STR_ENTER_SCALE_NAME","Zadejte jméno váhy","Voer naam weegschaal in","Enter scale name","Anna laitteen nimi","Entrer le nom du plateau","Waagenname eingeben","Mérleg nevének megadása","タイジュウケイメイヲニュウリョク","Wprowadź nazwę wagi","Entrar em nome de escala","Ввод имени весов","Introduzca nombre de la balanza","Terazi ismi girin"
"STR_REALLY_RESTORE_FACTORY_DEFAULTS","Obnovit tovární nastavení ?","Echt alles opnieuw instellen?","Really restore factory defaults ?","Haluatko varmasti palauttaa\ntehdasasetukset?","Voulez-vous vraiment restaurer\nles paramètres par défaut?","Wirklich auf Herstellereinstellungen\nzurücksetzen?","Gyári beállítás visszaállítása ?","ホントウニショキセッテ\nイニモドシマスカ?","Czy na pewno chcesz\nprzyrócić ustawienia domyślne?","Relamente restaurar falhas\nde fábrica?","Востановить установки?","¿Realmente restaurar\nlos factores de fábrica?","Fabrika ayarlarina\ndonulsun mu?"
,,,,,,,,,,,,,
"//-----------------------------------------------------------------------------",,,,,,,,,,,,,
"// Maintenance/Weighing menu :",,,,,,,,,,,,,
"//-----------------------------------------------------------------------------",,,,,,,,,,,,,
,,,,,,,,,,,,,
"STR_UNITS","Jednotky","Units","Units","Yksiköt","Unités","Einheiten","Mértékegységek","タンイ","Jednostki","Unidades","Единица изиерения","Unidades","Olcu birimi"
"STR_DIVISION","Dílek","Afdeling","Division","Tarkkuus","Précision","Teilung","Nézet","ブンルイ","Podział","Divisão","Точность","División","Hassasiyet"
"STR_RANGE","Váživost","Capaciteit","Capacity","Kapasiteetti","Capacité","Kapazität","Kapacitás","サイダイヨウリョウ","Wydajność","Capacidade","Предел","Capacidad","Kapasite"
"STR_CALIBRATION","Kalibrace","Calibratie","Calibration","Kalibrointi","Calibrage","Kalibrierung","Kalibrálás","メモリ","Kalibracja","Calibração","Калибровка","Calibración","Kalibrasyon"
,,,,,,,,,,,,,
"//-----------------------------------------------------------------------------",,,,,,,,,,,,,
"// Maintenance/Memory menu :",,,,,,,,,,,,,
"//-----------------------------------------------------------------------------",,,,,,,,,,,,,
,,,,,,,,,,,,,
"STR_CAPACITY","Kapacita","Capaciteit","Capacity","Kapasiteetti","Capacité","Kapazität","Kapacitás","メモリーヨウリョウ","Pojemność pamięci","Capacidade","Предел","Capacidad de memoria","Kapasite"
"STR_FORMAT","Formátovat","Geheugen weegschaal formatteren","Format","Alustus","Formatage","Formatieren","Formatálás","ショキカ","Format","Formatar","Формат","Formato","Format"
,,,,,,,,,,,,,
"// Memory menu messages :",,,,,,,,,,,,,
"STR_REALLY_FORMAT","Opravdu formátovat ?","Echt formatteren?","Really format ?","Haluatko varmasti alustaa?","Voulez-vous vraiment formater?","Wirklich formatieren?","Tényleg formatálja a gépet?","ホントウニショキカシマスカ?","Czy na pewno chcesz\nzmienić format?","Realmente formatar?","Правильный формат?","¿Realmente formato?","Gercekten format atilsin mi?"
,,,,,,,,,,,,,
"//-----------------------------------------------------------------------------",,,,,,,,,,,,,
"// Maintenance/Printer menu :",,,,,,,,,,,,,
"//-----------------------------------------------------------------------------",,,,,,,,,,,,,
,,,,,,,,,,,,,
"STR_PAPER_WIDTH","Šířka papíru","Papier breedte","Paper width","Paperin leveys","Épaisseur du papier?","Papierbreite","Papír szélesség","インサツシノハバ","Szerokość papieru","Largura do papel","Ширина бумаги","Ancho del papel","Kagıt genisligi"
"STR_COMMUNICATION_SPEED","Rychlost komunikace","Communicatie","Communication speed","Yhteysnopeus","Vitesse de comm.","Übertragungsgeschw.","Kommunikáció sebessége","ツウシンソクド","Prędkość komunikacji","Velocidade de Comun.","Скорость соединения","Rapidez de comunicación","Baglanti hizi"
"STR_COMMUNICATION_FORMAT","Formát komunikace","Communicatie formatteren","Communication format","Yhteysformaatti","Format de communication","Übertragungsformat","Kommunikációs forma","ツウシンケイシキ","Format komunikacji","Formato de Comunicação","Формат соединения","Formato de comunicación","Baglanti formati"
,,,,,,,,,,,,,
"//-----------------------------------------------------------------------------",,,,,,,,,,,,,
"// Maintenance/Country menu :",,,,,,,,,,,,,
"//-----------------------------------------------------------------------------",,,,,,,,,,,,,
,,,,,,,,,,,,,
"//STR_COUNTRY             Country""""",,,,,,,,,,,,,
"STR_LANGUAGE","Jazyk","Taal","Language","Kieli","Langage","Sprache","Nyelv","ゲンゴ","Język","Língua","Язык","Lenguaje","Dil"
"STR_DATE_FORMAT","Formát data","Datum formatteren","Date format","Pvm muoto","Format de date","Datumsformat","Dátum forma","ヒヅケケイシキ","Format daty","Formato de Data","Формат даты","Fecha del formato","Tarihi sil"
"STR_TIME_FORMAT","Formát času","Tijd formatteren","Time format","Ajan muoto","Format de l'heure","Zeitformat","Idő forma","ジカンヒョウジケイシキ","Format godziny","Formato de tempo","Формат времени","Hora del formato","Saati sil"
"STR_DAYLIGHT_SAVING_TIME","Letní čas","Winter-of zomertijd instellen","Daylight saving","Kesäaika","Saison de sauvegarde","Sommer-/ Winterzeit","Napszak mentés","ニッショウジカンセンタク","Zapisywanie dzienne","Horário de verão","Длительность дня","Ahorro de luz del día","Sezonu gir"
,,,,,,,,,,,,,
"// Country menu messages :",,,,,,,,,,,,,
"STR_ENTER_DATE_FORMAT","Zadejte formát data","Kies vorm van datum","Enter date format","Anna pvm muoto","Entrer le format de la date","Datumsformat eingeben","Dátumformátum megadása","ヒヅケケイシキヲニュウリョク","Wprowadź format daty","Entrar em formato de Data","Ввод формата даты","Introduzca el formato de fecha","Tarih formati gir"
"STR_ENTER_DATE_SEPARATOR1","První oddělovač","Eerste datumomschrijving","First separator","Ensimmäinen erotinmerkki","Première séparation","Erstes Trennzeichen","Első elválasztó","ブンリフ1","Piewszy separator","Primeiro Separador","Первое разделение","Primer separador","Tarih ayiraci"
"STR_ENTER_DATE_SEPARATOR2","Druhý oddělovač","Tweede datumomschrijving","Second separator","Toinen erotinmerkki","Seconde séparation","Zweites Trennzeichen","Második elválasztó","ブンリフ2","Drugi separator","Segundo Separador","Второе разделение","Segundo separador","Saniye ayiraci"
"STR_ENTER_TIME_FORMAT","Zadejte formát času","Kies vorm van tijd","Enter time format","Anna ajan muoto","Entrer le format de l'heure","Zeitformat eingeben","Dátumformátum megadása","ジカンケイシキのニュウリョク","Wprowadź format godziny","Entrar em formato de tempo","Ввод формата времени ","Introduzca el formato de hora","Zaman formati gir"
"STR_ENTER_TIME_SEPARATOR","Zadejte oddělovač","Maak uw keuze","Enter separator","Anna erotinmerkki","Entrer la séparation","Trennzeichen eingeben","Elválasztó megadása","ブンリフヲニュウリョク","Wprowadź separator","Entrar em separador","Ввод разделения","Introduzca separador","Ayirac gir"
,,,,,,,,,,,,,
"//-----------------------------------------------------------------------------",,,,,,,,,,,,,
"// Saving options menu :",,,,,,,,,,,,,
"//-----------------------------------------------------------------------------",,,,,,,,,,,,,
,,,,,,,,,,,,,
"//STR_MODE                  Mode""""",,,,,,,,,,,,,
"STR_WEIGHING_MORE_BIRDS","Vážit více kusů","Meer dieren tegelijkertijd wegen","More birds","Useampi lintu","Plus d'animaux","Weitere Vögel","Több madár","ハスウヲフヤス","Więcej ptaków","Mais aves","Больше птиц","Mas aves","Onceki tartimlar"
"//STR_NUMBER_OF_BIRDS       Number of birds""""",,,,,,,,,,,,,
"STR_WEIGHT_SORTING","Třídění","Sorteren op gewicht","Weight sorting","Punnitusten järjestys","Tri du poids","Nach Gewicht sortieren","Súly szerinti csoportok","タイジュウベツニセンベツ","Sortowanie pomiarów wagi","Classificação","Сортировка веса","Clasificacion de peso","Siniflama tartimi"
"STR_SORTING","Třídění","Sorteren","Sorting","Järjestys","Tri","Sortieren","Szortírozás","センベツ","Sortowanie","Classificação","Сортировка","Clasificar","Siniflama"
"STR_FILTER","Filtr","Filter","Filter","Suodatus","Filtre","Filter","Szűrő","フィルター","Filtr","Filtro","Фильтр","Filtro","Boylama kriterleri"
"STR_STABILISATION_TIME","Čas ustálení","Stabilisatie tijd","Stabilisation time","Stabiloitumisaika","Temps de stabilisation","Stabilisierungszeit","Stabilizációs idő","アンテイジカン","Czas stabilizacji","Estabilização de tempo","Стабилизация времени","Tiempo de estabilización","Sabitleme zamani"
"STR_MINIMUM_WEIGHT","Minimální hmotnost","Minimum gewicht","Minimum weight","Minimipaino","Poids minimum","Minimalgewicht","Minimum súly","サイテイタイジュウ","Minimalna waga","Peso minimo","Минимальный вес","Peso mínimo","Minimum agirlik"
"STR_STABILISATION_RANGE","Rozsah ustálení","Stabilisatie bereik","Stabilisation range","Stabiloitumisalue","Stabilisation de l'échelle","Stabilisierungsbereich","Stabilizációs fok","アンテイハンイ","Zakres stabilizacji","Estabilização de limite","Стабилизация диапазона","Rango de estabilización","Sabitleme araligi"
"STR_RESET_DEFAULTS","Nastavit výchozí hodnoty","Reset defaults","Reset defaults","Palauta oletusasetukset","Reset défauts","Auf Standardwerte zurücksetzen","Hiba törlése","リセットデフォルト","Resetuj domyślne","Ressetar falhas","Сбор сбоя","Restaurar valores","Standartlari degistir"
"STR_ENABLE_FILE_PARAMETERS","Parametry souboru","Bestandsindeling activeren","File parameters","Tiedoston parametrit","Paramètre du fichier","Dateiparameter","Adat paraméterek","ファイルパラメーター","Parametry pliku","Parametros de arquivos","Параметры файла","Parámetros de los archivos","Parametreler"
"STR_COPY_TO_FILE","Kopírovat do souborů","Naar bestand kopieren","Copy to file","Kopioi tiedostoon","Copier les paramètres sur fichier","In Datei kopieren","Másolás file-ba","ファイルヲコピー","Kopiuj do pliku","Copiar para arquivo","Копировать файл","Copiar a un archivo","Dosyaya kopyala"
,,,,,,,,,,,,,
"// Saving options menu messages :",,,,,,,,,,,,,
"STR_REALLY_RESET_DEFAULTS","Opravdu nastavit výchozí\nhodnoty ?","Eacht alles opnieuw instellen?","Really reset defaults ?","Haluatko varmasti palauttaa\noletusasetukset?","Voulez-vous vraiment restaurer les\nparamètres par défaut?","Wirkich auf Standardwerte\nzurücksetzen?","Hiba törlése?","ホントウニショキセッテ\nイニモドシマスカ?","Czy na pewno chcesz\nresetować domyślne?","Relamente ressetar falhas?","Сбросить сбой?","¿Realmente restaurar valores?","Standartlar degistirilsin mi?"
"STR_REALLY_COPY_TO_FILES","Opravdu kopírovat do souborů ?","Echt naar bestanden kopieren?","Really copy to files ?","Haluatko varmasti kopioida\ntiedostoihin?","Voulez-vous vraiment copier ces\nparamètres sur fichier?","Wirklich in Datei kopieren?","Valóban másolja?","ホントウニファイルヲ\nコピーシマスカ?","Czy na pewno chcesz\nkopiować do plików?","Relamente copiar para arquivos?","Скопировать файл?","¿Realmente copiar a los archivos?","Standartlar dosyaya\nkopyalansin mi?"
,,,,,,,,,,,,,
"//-----------------------------------------------------------------------------",,,,,,,,,,,,,
"// Weight sorting menu :",,,,,,,,,,,,,
"//-----------------------------------------------------------------------------",,,,,,,,,,,,,
,,,,,,,,,,,,,
"//STR_WEIGHT_SORTING    Weight sorting""""",,,,,,,,,,,,,
"//STR_MODE            Mode""""",,,,,,,,,,,,,
"//STR_LIMIT           Limit""""",,,,,,,,,,,,,
"//STR_LOW_LIMIT       Low limit""""",,,,,,,,,,,,,
"//STR_HIGH_LIMIT      High limit""""",,,,,,,,,,,,,
,,,,,,,,,,,,,
"//-----------------------------------------------------------------------------",,,,,,,,,,,,,
"// Calibration menu :",,,,,,,,,,,,,
"//-----------------------------------------------------------------------------",,,,,,,,,,,,,
,,,,,,,,,,,,,
"// calibration menu messages :",,,,,,,,,,,,,
"STR_ENTER_WEIGHT","Zadejte hmotnost","Voer gewicht in","Enter weight","Anna paino","Entrer le poids","Gewicht eingeben","Súly megadása","タイジュウヲニュウリョク","Wprowadź wagę","Entrar peso","Ввести вес","Introduzca peso","Agirlik gir"
"STR_RELEASE_WEIGHT","Odlehčete váhu","Alles van de haak verwijderen","Remove all from the hook","Tyhjennä koukku","Liberer le poids du plateau","Alles vom Haken entfernen","Vegye le a kampóról","フックヲフリーニスル","Usuń wszystko z haka","Remover tudo do quadro","Снимите всё с подвески","Retire todo del gancho","Kancadan tum agirliklari kaldir"
,,,,,,,,,,,,,
"//-----------------------------------------------------------------------------",,,,,,,,,,,,,
"// Password :",,,,,,,,,,,,,
"//-----------------------------------------------------------------------------",,,,,,,,,,,,,
,,,,,,,,,,,,,
"STR_PROTECT_BY_PASSWORD","Chránit heslem ?","Met wachtwoord beschermen?","Protect by password ?","Suojaa salasanalla?","Protection par mot de passe?","Mit Passwort schützen?","Védje jelszó?","パスワードデホゴシマスカ?","Chronić hasłem?","Proteger por senha?","Ввести пароль?","Protegido por una contraseña?","Sifreyi koru?"
"STR_ENTER_PASSWORD","Zadejte heslo","Voer wachtwoord in","Enter password","Anna salasana","Entrer un mot de passe","Passwort eingeben","Jelszó megadása","パスワードヲニュウリョク","Wprowadź hasło","Entrar em senha","Ввод пароля","Introduzca contraseña","Sifre gir"
"STR_ENTER_NEW_PASSWORD","Zadejte nové heslo","Voer nieuw wachtwoord in","Enter new password","Anna uusi salasana","Entrer un nouveau mot de passe","Neues Passwort eingeben","Új jelszó megadása","アタラシイパスワードヲニュウリョクスル","Wprowadź nowe hasło","Entrar nova senha","Ввод нового пароля","Introduzca nueva contraseña","Yeni sifre gir"
"STR_CONFIRM_PASSWORD","Potrvrďte heslo","Bevestig wachtwoord","Confirm password","Vahvista salasana","Confirmer le mot de passe","Passwort bestätigen","Jelszó jóváhagyása","パスワードヲカクニンスル","Potwierdź hasło","Confirmar senha","Подтвердить пароль","Confirme contraseña","Sifreyi tekrar gir"
"STR_PASSWORDS_DONT_MATCH","Hesla nesouhlasí","Wachtwoorden verschillen","Passwords don't match","Salasana ei täsmää","Le mot de passe ne correspond\npas","Passwort stimmt nicht\nüberein","Jelszavak nem egyeznek","パスワードガマチガッテイマス","Hasła się nie zgadzają","Senhas não confirmam","Пароль не совпадает","Contraseñas no coinciden","Ilk sifreyi tutmuyor"
"STR_INVALID_PASSWORD","Neplatné heslo","Onjuist wachtwoord","Invalid password","Väärä salasana","Mot de passe invalide","Ungültiges Passwort","Érvénytelen jelszó","ムコウナパスワード","Nieprawidłowe hasło","Senha inválida","Не верный пароль","Contraseña incorrecta","Gecersiz sifre"
,,,,,,,,,,,,,
"//-----------------------------------------------------------------------------",,,,,,,,,,,,,
"// Printer :",,,,,,,,,,,,,
"//-----------------------------------------------------------------------------",,,,,,,,,,,,,
,,,,,,,,,,,,,
"STR_PRINTING","Tisk...","Afdrukken...","Printing...","Tulostaa...","Impression...","Drucken...","Nyomtatás...","インサツチュウ","Drukowanie...","Imprimindo...","Печатается...","Imprimiendo...","Yaziliyor..."
"STR_START_PRINTING","Zahájit tisk ?","Beginnen met afdrukken?","Start printing ?","Aloita tulostus?","Débuter l'impression?","Drucken starten?","Nyomtatás kezdése?","インサツヲカイシシマスカ?","Rozpocząć drukowanie?","Começar a imprimir?","Начало печати?","Empezar a imprimir?","Yazdirmayi baslat?"
,,,,,,,,,,,,,
"//-----------------------------------------------------------------------------",,,,,,,,,,,,,
"// Screen",,,,,,,,,,,,,
"//-----------------------------------------------------------------------------",,,,,,,,,,,,,
,,,,,,,,,,,,,
"STR_MEMORY_CAPACITY","Kapacita paměti","Geheugen capaciteit","Memory capacity","Muistin kapasiteetti","Capacité de la mémoire","Speicherkapazität","Memória kapacitás","メモリーヨウリョウ","Pojemność pamięci","Capacidade de Memória","Ёмкость памяти","Capacidad de la memoria","Hafiza durumu"
"STR_FILES_COUNT","Počet souborů","Aantal bestanden","Number of files","Tiedostojen lukumäärä","Nombre de fichiers","Anzahl der Dateien","File-ok száma","ファイルノカズ","Ilość plików","Número de arquivos","Номер файла","Número de archivos","Dosya adeti"
"STR_FILES_SIZE","Počet hmotností","Aantal gewichten","Number of weights","Punnitusten lukumäärä","Nombre de pesées","Anzahl der Gewichtswerte","Mérések száma","タイジュウスウ","Ilość ptaków","Número de pesos","Номер взвешивания","Número de pesos","Hayvan adedi"
"STR_GROUPS_COUNT","Počet skupin","Aantal groepen","Number of groups","Ryhmien lukumäärä","Nombre de groupe","Anzahl der Gruppen","Csoportok száma","グループスウ","Ilość grup","Número de grupos","Номер групп","Número de grupos","Grup adeti"
"STR_MEMORY_USED","Použitá paměť","Gebruikt geheugen","Memory used","Muistia käytetty","Mémoire utilisée","Belegter Speicher","Foglalt memória","シヨウチュウノメモリー","Zajętość pamięci","Memória utilizada","Пользователь","Memoria utilizada","Kullanilan hafiza"
