"title","Picostrain Detection parameters",,,,,,,,
"prefix","Platform",,,,,,,,
"mprefix","Maintenance",,,,,,,,
"file","Picostrain",,,,,,,,
"Object","Name","Data Type","Class","Units","Decimals","Low Limit","High Limit","Default","Comment"
"Detection Picostrain",,,,,,,,,
,"Mode","byte","Detection Mode",,,,,"RELATIVE","absolute/relative mode"
,"Averaging Window Fine","byte",,,,1,250,"10","samples count for floating average - fine"
,"Averaging Window Coarse","byte",,,,1,250,"10","samples count for floating average - coarse"
,"Stable Window Fine","byte",,,,1,250,"10","samples count for stable value - fine"
,"Stable Window Coarse","byte",,,,1,250,"10","samples count for stable value - coarse"
,"_Dummy1","byte","spare",,,,,,"alignment only"
,"_Dummy2","byte","spare",,,,,,"alignment only"
,"_Dummy3","byte","spare",,,,,,"alignment only"
,"Absolute Range Fine","Weight",,,,,,"1","Absolute stabilisation range fine"
,"Absolute Range Coarse","Weight",,,,,,"1","Absolute stabilisation range coarse"
,"Absolute Switchover Range Fine","Weight",,,,,,"1","Absolute switchover range fine"
,"Absolute Switchover Range Coarse","Weight",,,,,,"1","Absolute switchover range Coarse"
,"Relative Range","word","fixed","%",1,"0.1",20,,"Relative stabilisation range"
,"Threshold Weight","WeightShort",,,,1,10000,"100","Minimum difference for valid sample"
