"title","Bat2 weighing platform data",,,,,,,,
"prefix","Platform",,,,,,,,
"file","Platform",,,,,,,,
"Object","Name","Data Type","Class","Units","Decimals","Low Limit","High Limit","Default","Comment"
"Sigma Delta","(AdcParameters)",,,,,,,,
,"Chop","byte","YesNo",,,,,"NO","Chopped mode"
,"Sinc3","byte","YesNo",,,,,"NO","SINX3 filter mode"
,"Rate","word","uint","Hz",,1,5000,"10","sampling rate"
,"Prefilter","word","uint",,,1,500,"1","averaging filter"
,,,,,,,,,
"Picostrain","(AdcParameters)",,,,,,,,
,"Filter","byte","Picostrain Filter",,,,,"SINC3","OFF/SINC3/SINC5"
,"Accuracy","byte","fixed","%",1,"0.0","10.0","1","accuracy coefficient"
,"Rate","word","uint","Hz",,1,10000,"10","sampling rate"
,"Prefilter","word","uint",,,1,1000,"1","averaging filter"
,,,,,,,,,
"Calibration",,,,,,,,,
,"Full Range","Weight","Weight",,,,,"5000","full range weight"
,"Delay","word","uint","ms",,1000,50000,"1000","Wait for stabilisation"
,"Duration","word","uint","ms",,1000,50000,"3000","Averaging samples count"
,,,,,,,,,
"Detection",,,,,,,,,
,"Mode","byte","Detection Mode",,,,,"RELATIVE","ABSOLUTE / RELATIVE"
,"Averaging Window","byte","fixed","s",1,"0.1",15,"1.0","Filter"
,"Absolute Range","Weight","Weight",,,,,"1","Absolute stabilisation range"
,"Relative Range","word","fixed","%",1,"0.1",20,,"Relative stabilisation range"
,"Stable Window","byte","fixed","s",1,"0.1",10,"0.5","Stabilisation Time"
,"Threshold Weight","WeightShort","WeightShort",,,1,10000,"100","Minimum difference for valid sample"
,,,,,,,,,
"Acceptance",,,,,,,,,
,"Mode","byte","Acceptance Mode",,,,,"UNISEX","OFF / STEP / UNISEX / MIXED / SINGLE"
,"Gender","byte","Gender",,,,,"UNKNOWN","UNKNOWN / MALE / FEMALE for Single Sex mode"
,"Low Limit","Weight","Weight",,,,,"1000","Mixed mode Low Limit Male"
,"Low Limit Male","alias",,,,,,,
,"High Limit","Weight","Weight",,,,,"1500","Mixed mode High Limit Male"
,"High Limit Male","alias",,,,,,,
,"Low Limit Female","Weight","Weight",,,,,"500","Mixed mode Low Limit Female"
,"High Limit Female","Weight","Weight",,,,,"1000","Mixed mode High Limit Female"
,"Step","byte","Acceptance Step",,,,,"BOTH","accept on ENTER / LEAVE / BOTH"
,,,,,,,,,
"Device","data",,,,,,,,
,"Device","struct","Device Version",,,,,,
,"Name","char","string",,,0,8,"MyDevice","Device name"
,"Version","word","uint",,,100,200,"100","Device version"
,"Next","menu","Device Next",,,,,,"Next device description"
,"Previous","menu",,,,,,,"Next device description"
,,,,,,,,,
"Weighing","menu",,,,,,,,
,"Start","method","WeighingStart",,,,,,
,"Stop","method","WeighingStop",,,,,,
,"Pause","method",,,,,,,
,"Resume","method",,,,,,,
,,,,,,,,,
"„Pokus“",,,,,,,,,
"Druhy pokus'",,,,,,,,,
