<?xml version="1.0" encoding="UTF-8" standalone="no"?>
<!-- Created with Inkscape (http://www.inkscape.org/) -->

<svg
   xmlns:dc="http://purl.org/dc/elements/1.1/"
   xmlns:cc="http://creativecommons.org/ns#"
   xmlns:rdf="http://www.w3.org/1999/02/22-rdf-syntax-ns#"
   xmlns:svg="http://www.w3.org/2000/svg"
   xmlns="http://www.w3.org/2000/svg"
   xmlns:sodipodi="http://sodipodi.sourceforge.net/DTD/sodipodi-0.dtd"
   xmlns:inkscape="http://www.inkscape.org/namespaces/inkscape"
   width="744.09448819"
   height="1052.3622047"
   id="svg2"
   version="1.1"
   inkscape:version="0.48.0 r9654"
   sodipodi:docname="DateTime.svg">
  <defs
     id="defs4" />
  <sodipodi:namedview
     id="base"
     pagecolor="#ffffff"
     bordercolor="#666666"
     borderopacity="1.0"
     inkscape:pageopacity="0.0"
     inkscape:pageshadow="2"
     inkscape:zoom="1.4"
     inkscape:cx="272.81985"
     inkscape:cy="762.0033"
     inkscape:document-units="mm"
     inkscape:current-layer="layer1"
     showgrid="true"
     inkscape:snap-global="true"
     inkscape:snap-grids="true"
     inkscape:snap-to-guides="false"
     inkscape:window-width="1531"
     inkscape:window-height="1016"
     inkscape:window-x="65"
     inkscape:window-y="-1"
     inkscape:window-maximized="0">
    <inkscape:grid
       type="xygrid"
       id="grid2985"
       empspacing="5"
       visible="true"
       enabled="true"
       snapvisiblegridlinesonly="true"
       units="mm"
       spacingx="1mm"
       spacingy="1mm"
       dotted="true" />
  </sodipodi:namedview>
  <metadata
     id="metadata7">
    <rdf:RDF>
      <cc:Work
         rdf:about="">
        <dc:format>image/svg+xml</dc:format>
        <dc:type
           rdf:resource="http://purl.org/dc/dcmitype/StillImage" />
        <dc:title />
      </cc:Work>
    </rdf:RDF>
  </metadata>
  <g
     inkscape:label="Layer 1"
     inkscape:groupmode="layer"
     id="layer1">
    <path
       style="fill:none;stroke:#000000;stroke-width:1px;stroke-linecap:butt;stroke-linejoin:miter;stroke-opacity:1"
       d="m 673.22835,999.21258 -566.92914,0 0,-425.19685"
       id="path2987"
       inkscape:connector-curvature="0" />
    <text
       xml:space="preserve"
       style="font-size:14px;font-style:normal;font-weight:bold;line-height:125%;letter-spacing:0px;word-spacing:0px;fill:#000000;fill-opacity:1;stroke:none;font-family:Sans;-inkscape-font-specification:Sans Bold;font-stretch:normal;font-variant:normal;text-anchor:start;text-align:start;writing-mode:lr"
       x="614.28571"
       y="1019.505"
       id="text2989"
       sodipodi:linespacing="125%"><tspan
         sodipodi:role="line"
         id="tspan2991"
         x="614.28571"
         y="1019.505">TimeStamp</tspan><tspan
         sodipodi:role="line"
         x="614.28571"
         y="1019.505"
         id="tspan2993" /></text>
    <text
       xml:space="preserve"
       style="font-size:14px;font-style:normal;font-variant:normal;font-weight:bold;font-stretch:normal;text-align:start;line-height:125%;letter-spacing:0px;word-spacing:0px;writing-mode:lr-tb;text-anchor:start;fill:#000000;fill-opacity:1;stroke:none;font-family:Sans;-inkscape-font-specification:Sans Bold"
       x="21.428572"
       y="586.64789"
       id="text2995"
       sodipodi:linespacing="125%"><tspan
         sodipodi:role="line"
         id="tspan2997"
         x="21.428572"
         y="586.64789">ClockTime</tspan></text>
    <text
       xml:space="preserve"
       style="font-size:12px;font-style:normal;font-weight:normal;line-height:125%;letter-spacing:0px;word-spacing:0px;fill:#000000;fill-opacity:1;stroke:none;font-family:Sans"
       x="230"
       y="1014.505"
       id="text2999"
       sodipodi:linespacing="125%"><tspan
         sodipodi:role="line"
         x="230"
         y="1014.505"
         id="tspan3003">Winter/Sommer</tspan></text>
    <text
       xml:space="preserve"
       style="font-size:12px;font-style:normal;font-weight:normal;line-height:125%;letter-spacing:0px;word-spacing:0px;fill:#000000;fill-opacity:1;stroke:none;font-family:Sans"
       x="460.62991"
       y="1016.9291"
       id="text3007"
       sodipodi:linespacing="125%"><tspan
         sodipodi:role="line"
         x="460.62991"
         y="1016.9291"
         id="tspan3011">Sommer/Winter</tspan></text>
    <path
       style="fill:none;stroke:#b4b4b4;stroke-width:1;stroke-linecap:butt;stroke-linejoin:miter;stroke-opacity:1;stroke-miterlimit:4;stroke-dasharray:1, 1;stroke-dashoffset:1"
       d="m 496.06299,999.21258 -389.76378,0 425.19685,-425.19685"
       id="path3783"
       inkscape:connector-curvature="0" />
    <path
       style="fill:none;stroke:#b4b4b4;stroke-width:1;stroke-linecap:butt;stroke-linejoin:miter;stroke-opacity:1;stroke-miterlimit:4;stroke-dasharray:1, 1;stroke-dashoffset:1"
       d="m 265.74803,999.21258 0,-425.19685"
       id="path3785"
       inkscape:connector-curvature="0" />
    <path
       style="fill:none;stroke:#b4b4b4;stroke-width:1;stroke-linecap:butt;stroke-linejoin:miter;stroke-opacity:1;stroke-miterlimit:4;stroke-dasharray:1, 1;stroke-dashoffset:1"
       d="m 478.34646,999.21258 0,-425.19685"
       id="path3787"
       inkscape:connector-curvature="0" />
    <path
       style="fill:none;stroke:#000000;stroke-width:1px;stroke-linecap:butt;stroke-linejoin:miter;stroke-opacity:1"
       d="m 673.22835,503.14959 -566.92914,0 0,-425.19686"
       id="path2987-2"
       inkscape:connector-curvature="0" />
    <text
       xml:space="preserve"
       style="font-size:14px;font-style:normal;font-variant:normal;font-weight:bold;font-stretch:normal;text-align:start;line-height:125%;letter-spacing:0px;word-spacing:0px;writing-mode:lr-tb;text-anchor:start;fill:#000000;fill-opacity:1;stroke:none;font-family:Sans;-inkscape-font-specification:Sans Bold"
       x="17.716536"
       y="77.952736"
       id="text2989-5"
       sodipodi:linespacing="125%"><tspan
         sodipodi:role="line"
         id="tspan2991-8"
         x="17.716536"
         y="77.952736">TimeStamp</tspan><tspan
         sodipodi:role="line"
         x="17.716536"
         y="95.452736"
         id="tspan2993-6" /></text>
    <text
       xml:space="preserve"
       style="font-size:14px;font-style:normal;font-variant:normal;font-weight:bold;font-stretch:normal;text-align:start;line-height:125%;letter-spacing:0px;word-spacing:0px;writing-mode:lr-tb;text-anchor:start;fill:#000000;fill-opacity:1;stroke:none;font-family:Sans;-inkscape-font-specification:Sans Bold"
       x="620.07874"
       y="520.86615"
       id="text2995-7"
       sodipodi:linespacing="125%"><tspan
         sodipodi:role="line"
         id="tspan2997-7"
         x="620.07874"
         y="520.86615">ClockTime</tspan></text>
    <text
       xml:space="preserve"
       style="font-size:12px;font-style:normal;font-weight:normal;line-height:125%;letter-spacing:0px;word-spacing:0px;fill:#000000;fill-opacity:1;stroke:none;font-family:Sans"
       x="230.00002"
       y="518.44202"
       id="text2999-2"
       sodipodi:linespacing="125%"><tspan
         sodipodi:role="line"
         x="230.00002"
         y="518.44202"
         id="tspan3003-2">Winter/Sommer</tspan></text>
    <text
       xml:space="preserve"
       style="font-size:12px;font-style:normal;font-weight:normal;line-height:125%;letter-spacing:0px;word-spacing:0px;fill:#000000;fill-opacity:1;stroke:none;font-family:Sans"
       x="460.62991"
       y="520.86609"
       id="text3007-9"
       sodipodi:linespacing="125%"><tspan
         sodipodi:role="line"
         x="460.62991"
         y="520.86609"
         id="tspan3011-4">Sommer/Winter</tspan></text>
    <path
       style="fill:none;stroke:#b4b4b4;stroke-width:1;stroke-linecap:butt;stroke-linejoin:miter;stroke-miterlimit:4;stroke-opacity:1;stroke-dasharray:1, 1;stroke-dashoffset:1"
       d="m 496.06299,503.14959 -389.76378,0 425.19685,-425.19686"
       id="path3783-1"
       inkscape:connector-curvature="0" />
    <rect
       style="fill:#000000;fill-opacity:1;stroke:#00ff00;stroke-width:0.99921262;stroke-miterlimit:4;stroke-opacity:1;stroke-dasharray:none;stroke-dashoffset:0.99921262"
       id="rect3912"
       width="17.716536"
       height="14.173228"
       x="265.74802"
       y="494.97635" />
    <path
       style="fill:none;stroke:#b4b4b4;stroke-width:0.61237246;stroke-linecap:butt;stroke-linejoin:miter;stroke-miterlimit:4;stroke-opacity:1;stroke-dasharray:0.61237244, 0.61237244;stroke-dashoffset:0.61237244"
       d="m 265.74803,503.14959 0,-159.44882"
       id="path3785-9"
       inkscape:connector-curvature="0" />
    <path
       style="fill:none;stroke:#b4b4b4;stroke-width:1;stroke-linecap:butt;stroke-linejoin:miter;stroke-miterlimit:4;stroke-opacity:1;stroke-dasharray:1, 1;stroke-dashoffset:1"
       d="m 478.34646,503.14959 0,-425.19686"
       id="path3787-6"
       inkscape:connector-curvature="0" />
    <path
       sodipodi:type="arc"
       style="stroke:#000000;stroke-width:1.41732283;stroke-miterlimit:4;stroke-opacity:1;stroke-dasharray:none;stroke-dashoffset:1;fill:#ffffff;fill-opacity:1"
       id="path3856"
       sodipodi:cx="265.74802"
       sodipodi:cy="343.70078"
       sodipodi:rx="3.5433071"
       sodipodi:ry="3.5433071"
       d="m 269.29132,343.70078 a 3.5433071,3.5433071 0 1 1 -7.08661,0 3.5433071,3.5433071 0 1 1 7.08661,0 z"
       transform="translate(0.4567081,-9.8521318e-6)" />
    <path
       sodipodi:type="arc"
       style="stroke:#000000;stroke-width:1.41732283;stroke-miterlimit:4;stroke-opacity:1;stroke-dasharray:none;stroke-dashoffset:0.99921260000000001;fill:#ffffff;fill-opacity:1"
       id="path3858"
       sodipodi:cx="478.34647"
       sodipodi:cy="113.3858"
       sodipodi:rx="3.5433071"
       sodipodi:ry="3.5433071"
       d="m 481.88977,113.3858 a 3.5433071,3.5433071 0 1 1 -7.08661,0 3.5433071,3.5433071 0 1 1 7.08661,0 z"
       transform="translate(-17.716545,53.606301)" />
    <path
       sodipodi:type="arc"
       style="stroke:#000000;stroke-width:1.41732283;stroke-miterlimit:4;stroke-opacity:1;stroke-dasharray:none;stroke-dashoffset:1;fill:#ffffff;fill-opacity:1"
       id="path3860"
       sodipodi:cx="265.74802"
       sodipodi:cy="839.76373"
       sodipodi:rx="3.5433071"
       sodipodi:ry="3.5433071"
       d="m 269.29132,839.76373 a 3.5433071,3.5433071 0 1 1 -7.08661,0 3.5433071,3.5433071 0 1 1 7.08661,0 z" />
    <path
       sodipodi:type="arc"
       style="stroke:#00ff00;stroke-width:1;stroke-miterlimit:4;stroke-opacity:1;stroke-dasharray:1, 1;stroke-dashoffset:1"
       id="path3862"
       sodipodi:cx="478.34647"
       sodipodi:cy="644.8819"
       sodipodi:rx="3.5433071"
       sodipodi:ry="3.5433071"
       d="m 481.88977,644.8819 a 3.5433071,3.5433071 0 1 1 -7.08661,0 3.5433071,3.5433071 0 1 1 7.08661,0 z"
       transform="translate(0.4566836,-17.716565)" />
    <rect
       style="fill:none;stroke:#000000;stroke-width:0.99921262;stroke-miterlimit:4;stroke-opacity:1;stroke-dasharray:none;stroke-dashoffset:0.9992126"
       id="rect3864"
       width="14.173228"
       height="17.716536"
       x="100.12598"
       y="609.44879" />
    <path
       style="fill:none;stroke:#b4b4b4;stroke-width:0.99921262;stroke-linecap:butt;stroke-linejoin:miter;stroke-miterlimit:4;stroke-opacity:1;stroke-dasharray:0.99921262, 0.99921262;stroke-dashoffset:0.99921262"
       d="m 106.29921,609.16533 372.04725,0"
       id="path3866"
       inkscape:connector-curvature="0" />
    <path
       style="fill:none;stroke:#b4b4b4;stroke-width:0.99921262;stroke-linecap:butt;stroke-linejoin:miter;stroke-miterlimit:4;stroke-opacity:1;stroke-dasharray:0.99921262, 0.99921262;stroke-dashoffset:0.99921262"
       d="m 106.29921,626.88187 372.04725,0"
       id="path3868"
       inkscape:connector-curvature="0" />
    <text
       xml:space="preserve"
       style="font-size:10px;font-style:normal;font-weight:normal;line-height:125%;letter-spacing:0px;word-spacing:0px;fill:#000000;fill-opacity:1;stroke:none;font-family:Sans"
       x="53.149605"
       y="822.04724"
       id="text3870"
       sodipodi:linespacing="125%"><tspan
         sodipodi:role="line"
         id="tspan3872"
         x="53.149605"
         y="822.04724">Invalid</tspan><tspan
         sodipodi:role="line"
         x="53.149605"
         y="834.54724"
         id="tspan3874">range</tspan></text>
    <path
       style="fill:none;stroke:#b4b4b4;stroke-width:1;stroke-linecap:butt;stroke-linejoin:miter;stroke-miterlimit:4;stroke-opacity:1;stroke-dasharray:1, 1;stroke-dashoffset:1"
       d="m 265.74803,821.76376 -159.44882,0"
       id="path3876"
       inkscape:connector-curvature="0" />
    <path
       style="fill:none;stroke:#b4b4b4;stroke-width:1;stroke-linecap:butt;stroke-linejoin:miter;stroke-miterlimit:4;stroke-opacity:1;stroke-dasharray:1, 1;stroke-dashoffset:1"
       d="m 265.74803,839.48029 -159.44882,0"
       id="path3878"
       inkscape:connector-curvature="0" />
    <rect
       style="fill:#000000;fill-opacity:1;stroke:#000000;stroke-width:0.99921262;stroke-miterlimit:4;stroke-opacity:1;stroke-dasharray:none;stroke-dashoffset:0.99921262"
       id="rect3880"
       width="14.173228"
       height="17.716536"
       x="99.559052"
       y="822.04724" />
    <text
       xml:space="preserve"
       style="font-size:10px;font-style:normal;font-weight:normal;line-height:125%;letter-spacing:0px;word-spacing:0px;fill:#000000;fill-opacity:1;stroke:none;font-family:Sans"
       x="35.433071"
       y="615.16534"
       id="text3882"
       sodipodi:linespacing="125%"><tspan
         sodipodi:role="line"
         id="tspan3884"
         x="35.433071"
         y="615.16534">Overlapped</tspan><tspan
         sodipodi:role="line"
         x="35.433071"
         y="627.66534"
         id="tspan3886">range</tspan></text>
    <rect
       style="fill:none;stroke:#000000;stroke-width:0.99921262;stroke-miterlimit:4;stroke-opacity:1;stroke-dasharray:none;stroke-dashoffset:1"
       id="rect3888"
       width="14.173228"
       height="17.716536"
       x="98.125984"
       y="148.81888" />
    <path
       style="fill:none;stroke:#b4b4b4;stroke-width:0.99921262;stroke-linecap:butt;stroke-linejoin:miter;stroke-miterlimit:4;stroke-opacity:1;stroke-dasharray:0.99921262, 0.99921262;stroke-dashoffset:0.99921262"
       d="m 106.29921,343.70077 159.44882,0"
       id="path3890"
       inkscape:connector-curvature="0" />
    <path
       style="fill:none;stroke:#b4b4b4;stroke-width:0.99921262;stroke-linecap:butt;stroke-linejoin:miter;stroke-opacity:1;stroke-miterlimit:4;stroke-dasharray:0.99921262,0.99921262;stroke-dashoffset:0.99921262"
       d="m 106.29921,343.70077 159.44882,0"
       id="path3892"
       inkscape:connector-curvature="0" />
    <path
       style="fill:none;stroke:#b4b4b4;stroke-width:0.99921262;stroke-linecap:butt;stroke-linejoin:miter;stroke-miterlimit:4;stroke-opacity:1;stroke-dasharray:0.99921262, 0.99921262;stroke-dashoffset:0.99921262"
       d="m 106.29921,148.81888 372.04725,0"
       id="path3896"
       inkscape:connector-curvature="0" />
    <text
       xml:space="preserve"
       style="font-size:12px;font-style:normal;font-weight:normal;line-height:125%;letter-spacing:0px;word-spacing:0px;fill:#000000;fill-opacity:1;stroke:none;font-family:Sans"
       x="4"
       y="152.81888"
       id="text3900"
       sodipodi:linespacing="125%"><tspan
         sodipodi:role="line"
         id="tspan3902"
         x="4"
         y="152.81888">Unaccessible</tspan><tspan
         sodipodi:role="line"
         x="4"
         y="167.81888"
         id="tspan3906">range</tspan></text>
    <path
       style="fill:none;stroke:#b4b4b4;stroke-width:0.95044076;stroke-linecap:butt;stroke-linejoin:miter;stroke-miterlimit:4;stroke-opacity:1;stroke-dasharray:0.95044078, 0.95044078;stroke-dashoffset:0.95044078"
       d="m 460.62992,503.14958 0,-336.61417"
       id="path3914"
       inkscape:connector-curvature="0" />
    <text
       xml:space="preserve"
       style="font-size:10px;font-style:normal;font-weight:normal;line-height:125%;letter-spacing:0px;word-spacing:0px;fill:#000000;fill-opacity:1;stroke:none;font-family:Sans"
       x="248.03149"
       y="467.71652"
       id="text3916"
       sodipodi:linespacing="125%"><tspan
         sodipodi:role="line"
         id="tspan3918"
         x="248.03149"
         y="467.71652">Forbidden</tspan><tspan
         sodipodi:role="line"
         x="248.03149"
         y="480.21652"
         id="tspan3922">area</tspan></text>
    <path
       style="fill:none;stroke:#ff0000;stroke-width:1px;stroke-linecap:butt;stroke-linejoin:miter;stroke-opacity:1"
       d="m 106.29921,999.21258 159.44882,-159.44882 0,-17.71654 212.59843,-212.59842 0,17.71653 53.1496,-53.1496"
       id="path3040"
       inkscape:connector-curvature="0" />
    <text
       xml:space="preserve"
       style="font-size:12px;font-style:normal;font-weight:normal;line-height:125%;letter-spacing:0px;word-spacing:0px;fill:#000000;fill-opacity:1;stroke:none;font-family:Sans"
       x="257.71429"
       y="1032.3622"
       id="text3810"
       sodipodi:linespacing="125%"><tspan
         sodipodi:role="line"
         id="tspan3812"
         x="257.71429"
         y="1032.3622">2:00</tspan><tspan
         sodipodi:role="line"
         x="257.71429"
         y="1047.3622"
         id="tspan3814" /></text>
    <text
       xml:space="preserve"
       style="font-size:12px;font-style:normal;font-weight:normal;line-height:125%;letter-spacing:0px;word-spacing:0px;fill:#000000;fill-opacity:1;stroke:none;font-family:Sans"
       x="470.02927"
       y="1032.3622"
       id="text3810-0"
       sodipodi:linespacing="125%"><tspan
         sodipodi:role="line"
         id="tspan3812-9"
         x="470.02927"
         y="1032.3622">2:00</tspan><tspan
         sodipodi:role="line"
         x="470.02927"
         y="1047.3622"
         id="tspan3814-4" /></text>
    <text
       xml:space="preserve"
       style="font-size:12px;font-style:normal;font-weight:normal;line-height:125%;letter-spacing:0px;word-spacing:0px;fill:#000000;fill-opacity:1;stroke:none;font-family:Sans"
       x="17.716536"
       y="839.76373"
       id="text3810-4"
       sodipodi:linespacing="125%"
       inkscape:transform-center-x="-38.968674"
       inkscape:transform-center-y="28.910376"><tspan
         sodipodi:role="line"
         id="tspan3812-92"
         x="17.716536"
         y="839.76373">2:00</tspan><tspan
         sodipodi:role="line"
         x="17.716536"
         y="854.76373"
         id="tspan3814-1" /></text>
    <text
       xml:space="preserve"
       style="font-size:12px;font-style:normal;font-weight:normal;line-height:125%;letter-spacing:0px;word-spacing:0px;fill:#000000;fill-opacity:1;stroke:none;font-family:Sans"
       x="7.7165356"
       y="635.16534"
       id="text3810-3"
       sodipodi:linespacing="125%"
       inkscape:transform-center-y="11.193816"><tspan
         sodipodi:role="line"
         id="tspan3812-6"
         x="7.7165356"
         y="635.16534">2:00</tspan><tspan
         sodipodi:role="line"
         x="7.7165356"
         y="650.16534"
         id="tspan3814-0" /></text>
    <text
       xml:space="preserve"
       style="font-size:12px;font-style:normal;font-weight:normal;line-height:125%;letter-spacing:0px;word-spacing:0px;fill:#000000;fill-opacity:1;stroke:none;font-family:Sans"
       x="17.716536"
       y="822.04724"
       id="text3810-6"
       sodipodi:linespacing="125%"><tspan
         sodipodi:role="line"
         x="17.716536"
         y="822.04724"
         id="tspan3873">3:00</tspan><tspan
         sodipodi:role="line"
         x="17.716536"
         y="837.04724"
         id="tspan3814-9" /></text>
    <text
       xml:space="preserve"
       style="font-size:12px;font-style:normal;font-weight:normal;line-height:125%;letter-spacing:0px;word-spacing:0px;fill:#000000;fill-opacity:1;stroke:none;font-family:Sans"
       x="7.7165356"
       y="613.44879"
       id="text3810-6-6"
       sodipodi:linespacing="125%"><tspan
         sodipodi:role="line"
         x="7.7165356"
         y="613.44879"
         id="tspan3873-3">3:00</tspan><tspan
         sodipodi:role="line"
         x="7.7165356"
         y="628.44879"
         id="tspan3814-9-8" /></text>
    <text
       xml:space="preserve"
       style="font-size:12px;font-style:normal;font-weight:normal;line-height:125%;letter-spacing:0px;word-spacing:0px;fill:#000000;fill-opacity:1;stroke:none;font-family:Sans"
       x="246.03149"
       y="538.58264"
       id="text3810-2"
       sodipodi:linespacing="125%"><tspan
         sodipodi:role="line"
         id="tspan3812-1"
         x="246.03149"
         y="538.58264">2:00</tspan><tspan
         sodipodi:role="line"
         x="246.03149"
         y="553.58264"
         id="tspan3814-97" /></text>
    <path
       style="fill:none;stroke:#00ff00;stroke-width:1px;stroke-linecap:butt;stroke-linejoin:miter;stroke-opacity:1"
       d="M 106.29921,503.14958 265.74803,343.70077"
       id="path3925"
       inkscape:connector-curvature="0" />
    <text
       xml:space="preserve"
       style="font-size:12px;font-style:normal;font-weight:normal;line-height:125%;letter-spacing:0px;word-spacing:0px;fill:#000000;fill-opacity:1;stroke:none;font-family:Sans"
       x="283.46457"
       y="538.58264"
       id="text3810-6-2"
       sodipodi:linespacing="125%"><tspan
         sodipodi:role="line"
         x="283.46457"
         y="538.58264"
         id="tspan3873-0">3:00</tspan><tspan
         sodipodi:role="line"
         x="283.46457"
         y="553.58264"
         id="tspan3814-9-9" /></text>
    <path
       style="fill:none;stroke:#00ff00;stroke-width:1px;stroke-linecap:butt;stroke-linejoin:miter;stroke-opacity:1"
       d="m 283.46457,343.70077 194.88189,-194.88189 -17.71654,0 70.86614,-70.866146"
       id="path3951"
       inkscape:connector-curvature="0" />
    <path
       style="fill:none;stroke:#b4b4b4;stroke-width:0.61237246;stroke-linecap:butt;stroke-linejoin:miter;stroke-miterlimit:4;stroke-opacity:1;stroke-dasharray:0.61237244, 0.61237244;stroke-dashoffset:0.61237244"
       d="m 283.46457,503.1496 0,-159.44883"
       id="path3785-9-80"
       inkscape:connector-curvature="0" />
    <text
       xml:space="preserve"
       style="font-size:12px;font-style:normal;font-weight:normal;line-height:125%;letter-spacing:0px;word-spacing:0px;fill:#000000;fill-opacity:1;stroke:none;font-family:Sans"
       x="66.866142"
       y="347.4173"
       id="text3810-2-5"
       sodipodi:linespacing="125%"><tspan
         sodipodi:role="line"
         id="tspan3812-1-5"
         x="66.866142"
         y="347.4173">2:00</tspan><tspan
         sodipodi:role="line"
         x="66.866142"
         y="362.4173"
         id="tspan3814-97-1" /></text>
    <path
       style="fill:none;stroke:#b4b4b4;stroke-width:0.97513169;stroke-linecap:butt;stroke-linejoin:miter;stroke-miterlimit:4;stroke-opacity:1;stroke-dasharray:0.97513166, 0.97513166;stroke-dashoffset:0.97513166"
       d="m 106.29921,165.96849 354.33071,0"
       id="path3896-8"
       inkscape:connector-curvature="0" />
    <path
       style="fill:none;stroke:#ff0000;stroke-width:0.99921262000000000;stroke-linecap:butt;stroke-linejoin:miter;stroke-miterlimit:4;stroke-opacity:1;stroke-dasharray:1.99842520000000000, 0.99921260000000001;stroke-dashoffset:0"
       d="m 460.62992,148.81888 0,17.71653"
       id="path4020"
       inkscape:connector-curvature="0" />
    <path
       sodipodi:type="arc"
       style="stroke:#00ff00;stroke-width:1;stroke-miterlimit:4;stroke-opacity:1;stroke-dasharray:1, 1;stroke-dashoffset:1"
       id="path3856-7"
       sodipodi:cx="265.74802"
       sodipodi:cy="343.70078"
       sodipodi:rx="3.5433071"
       sodipodi:ry="3.5433071"
       d="m 269.29132,343.70078 a 3.5433071,3.5433071 0 1 1 -7.08661,0 3.5433071,3.5433071 0 1 1 7.08661,0 z"
       transform="translate(195.3386,-194.8819)" />
    <text
       xml:space="preserve"
       style="font-size:12px;font-style:normal;font-weight:normal;line-height:125%;letter-spacing:0px;word-spacing:0px;fill:#000000;fill-opacity:1;stroke:none;font-family:Sans"
       x="478.91339"
       y="538.58264"
       id="text3810-6-2-2"
       sodipodi:linespacing="125%"><tspan
         sodipodi:role="line"
         x="478.91339"
         y="538.58264"
         id="tspan3873-0-9">3:00</tspan><tspan
         sodipodi:role="line"
         x="478.91339"
         y="553.58264"
         id="tspan3814-9-9-3" /></text>
    <text
       xml:space="preserve"
       style="font-size:12px;font-style:normal;font-weight:normal;line-height:125%;letter-spacing:0px;word-spacing:0px;fill:#000000;fill-opacity:1;stroke:none;font-family:Sans"
       x="442.91339"
       y="538.58264"
       id="text3810-2-9"
       sodipodi:linespacing="125%"><tspan
         sodipodi:role="line"
         id="tspan3812-1-4"
         x="442.91339"
         y="538.58264">2:00</tspan><tspan
         sodipodi:role="line"
         x="442.91339"
         y="553.58264"
         id="tspan3814-97-7" /></text>
    <text
       xml:space="preserve"
       style="font-size:12px;font-style:normal;font-weight:normal;line-height:125%;letter-spacing:0px;word-spacing:0px;fill:#000000;fill-opacity:1;stroke:none;font-family:Sans"
       x="70.866142"
       y="184.25195"
       id="text3810-2-5-3"
       sodipodi:linespacing="125%"><tspan
         sodipodi:role="line"
         x="70.866142"
         y="199.25195"
         id="tspan4114">1:00</tspan></text>
    <text
       xml:space="preserve"
       style="font-size:12px;font-style:normal;font-weight:normal;line-height:125%;letter-spacing:0px;word-spacing:0px;fill:#000000;fill-opacity:1;stroke:none;font-family:Sans"
       x="70.58268"
       y="138.5354"
       id="text3810-2-5-5"
       sodipodi:linespacing="125%"><tspan
         sodipodi:role="line"
         id="tspan3812-1-5-9"
         x="70.58268"
         y="138.5354">2:00</tspan><tspan
         sodipodi:role="line"
         x="70.58268"
         y="153.5354"
         id="tspan3814-97-1-9" /></text>
    <path
       sodipodi:type="arc"
       style="stroke:#00ff00;stroke-width:1;stroke-miterlimit:4;stroke-opacity:1;stroke-dasharray:1, 1;stroke-dashoffset:1"
       id="path3856-7-1"
       sodipodi:cx="265.74802"
       sodipodi:cy="343.70078"
       sodipodi:rx="3.5433071"
       sodipodi:ry="3.5433071"
       d="m 269.29132,343.70078 a 3.5433071,3.5433071 0 1 1 -7.08661,0 3.5433071,3.5433071 0 1 1 7.08661,0 z"
       transform="translate(19.889782,-5.6995536e-6)" />
    <path
       sodipodi:type="arc"
       style="stroke:#00ff00;stroke-width:1;stroke-miterlimit:4;stroke-opacity:1;stroke-dasharray:1, 1;stroke-dashoffset:1"
       id="path3856-7-7"
       sodipodi:cx="265.74802"
       sodipodi:cy="343.70078"
       sodipodi:rx="3.5433071"
       sodipodi:ry="3.5433071"
       d="m 269.29132,343.70078 a 3.5433071,3.5433071 0 1 1 -7.08661,0 3.5433071,3.5433071 0 1 1 7.08661,0 z"
       transform="translate(0.740176,478.62992)" />
    <path
       sodipodi:type="arc"
       style="stroke:#000000;stroke-width:1.41732283;stroke-miterlimit:4;stroke-opacity:1;stroke-dasharray:none;stroke-dashoffset:0.99921260000000001;fill:#ffffff;fill-opacity:1"
       id="path3856-7-4"
       sodipodi:cx="265.74802"
       sodipodi:cy="343.70078"
       sodipodi:rx="3.5433071"
       sodipodi:ry="3.5433071"
       d="m 269.29132,343.70078 a 3.5433071,3.5433071 0 1 1 -7.08661,0 3.5433071,3.5433071 0 1 1 7.08661,0 z"
       transform="translate(213.3386,266.03149)" />
    <path
       style="fill:none;stroke:#ff0000;stroke-width:0.9992126;stroke-linecap:butt;stroke-linejoin:miter;stroke-opacity:1;stroke-miterlimit:4;stroke-dasharray:0.9992126,0.9992126;stroke-dashoffset:0"
       d="m 265.74803,361.4173 17.71654,-17.71653"
       id="path3085"
       inkscape:connector-curvature="0" />
  </g>
</svg>
